{ "_id" : "cabinet", "settings" : "cabinet-menu-item-settings", "conditions" : "cabinet-menu-item-lang-conditions", "system" : true }
{ "_id" : "demo-blog-menu-item", "settings" : { "parent" : "demo-main-menu-item", "display" : "name", "val" : "demo-blog-page", "icon" : "", "title" : "Blog", "type" : "page" }, "system" : true }
{ "_id" : "demo-dataview-menu-item", "style" : "", "settings" : { "type" : "page", "val" : "demo-dataview-page", "icon" : "", "display" : "name", "parent" : "demo-main-menu-item", "title" : "Dataview", "rank" : 1 }, "system" : true }
{ "_id" : "bank_id", "settings" : "P4GszGdDjRXv5bMqx", "conditions" : "Lb2hGtQToEzPL4SDY" }
{ "_id" : "clients_id", "settings" : "xXda2PhR8nJeqhk83", "conditions" : "2L33HdqRTyxKFphbR" }
{ "_id" : "demo-form-menu-item", "style" : "", "settings" : { "type" : "page", "val" : "demo-form-page", "icon" : "", "display" : "name", "parent" : "demo-main-menu-item", "title" : "Forms ", "rank" : 4 }, "conditions" : "", "system" : true }
{ "_id" : "demo-main-menu-item", "style" : "", "settings" : { "rank" : -10, "title" : "Demo", "parent" : "left-menu", "display" : "name", "icon" : "", "type" : "page", "val" : "" }, "conditions" : "", "system" : true }
{ "_id" : "demo-mini-calendar-menu-item", "style" : "", "settings" : { "type" : "page", "val" : "demo-mini-calendar-page", "icon" : "", "display" : "name", "parent" : "demo-main-menu-item", "title" : "Mini Calendar", "rank" : 3 }, "conditions" : "", "system" : true }
{ "_id" : "demo-panel-menu-item", "style" : "", "settings" : { "type" : "page", "val" : "demo-panel-page", "icon" : "", "display" : "name", "parent" : "demo-main-menu-item", "title" : "Panel", "rank" : 2 }, "conditions" : "", "system" : true }
{ "_id" : "demo-rightbar-menu-item", "settings" : { "parent" : "demo-main-menu-item", "display" : "name", "val" : "demo-rightbar-page", "rank" : 6, "icon" : "", "title" : "Right Sidebar", "type" : "page" }, "conditions" : "", "system" : true }
{ "_id" : "demo-router-menu-item", "settings" : { "parent" : "demo-main-menu-item", "display" : "name", "val" : "demo-router-page", "rank" : 5, "icon" : "", "title" : "Router Redirect", "type" : "page" }, "conditions" : "", "system" : true }
{ "_id" : "demo-tabcontrol-menu-item", "settings" : { "parent" : "demo-main-menu-item", "display" : "name", "val" : "demo-tabcontrol-page", "icon" : "", "title" : "Tab Control", "type" : "page" }, "conditions" : "", "system" : true }
{ "_id" : "home", "settings" : "DyGqdak4wFAyr3neB", "style" : "", "conditions" : "6NXo4mqiDkySfJwNo" }
{ "_id" : "hr_id", "style" : "", "settings" : "idicfkn4HAsELgbK4", "conditions" : "Jfoev5c4mzbSRsbpa" }
{ "_id" : "hr_staff", "settings" : "8jMKteNSFHQ56Ag3s", "conditions" : "chrTMpzAz79nETuzj" }
{ "_id" : "logout", "style" : "", "settings" : "logout-menu-item-settings", "conditions" : "logout-menu-item-lang-conditions", "system" : true }
{ "_id" : "notifications", "style" : "", "settings" : { "type" : "action", "val" : "() => { core.admin.switchNotificationList(); }", "title" : "Notifications", "icon" : "/images/notification.svg", "display" : "icon", "parent" : "right-menu", "rank" : 2 }, "system" : true }
{ "_id" : "plan_id", "settings" : "Nn5pnxGv9fRKArjLk", "conditions" : "gvC6oo2epEFCPc5w6" }
{ "_id" : "tasks_id", "settings" : "p3wxorpapEkDPs3eZ", "conditions" : "aCEyMHZqZqbYjC8X6" }
{ "_id" : "user-avatar", "style" : "circle-avatar", "settings" : "user-avatar-menu-item-settings", "conditions" : "user-avatar-menu-item-conditions", "system" : true }
{ "_id" : "logo-menu-item", "settings" : { "rank" : -999, "title" : "", "parent" : "left-menu", "display" : "icon", "icon" : "/images/logo.png", "type" : "page", "val" : "home" }, "style" : "", "system" : true }
{ "_id" : "Xs4rxoWKp4MFFDvBq", "settings" : "Pf74aozF6aNFaYcDA", "conditions" : "cdJao2KeN7iW9d4Mv" }
{ "_id" : "demo-filemanager-menu-item", "style" : "", "settings" : { "type" : "page", "val" : "demo-filemanager-page", "icon" : "", "display" : "name", "parent" : "demo-main-menu-item", "title" : "Filemanager", "rank" : 10 }, "conditions" : "", "system" : true }
{ "_id" : "setup", "settings" : "9Gfo3BnJbx27XMcFp", "conditions" : "492F9ooqfeA32NLeB" }
{ "_id" : "page-media", "settings" : "eLhxArwayBWMSivps" }
{ "_id" : "files", "settings" : "kRt4zCjZpHAxnvgGs" }
{ "_id" : "shareholders", "settings" : { "parent" : "home", "display" : "name", "val" : "shareholders", "icon" : "", "title" : "Shareholders", "type" : "page" } }
{ "_id" : "history", "settings" : { "parent" : "home", "display" : "name", "val" : "history", "icon" : "", "title" : "History", "type" : "page" } }
{ "_id" : "mission", "settings" : { "parent" : "home", "display" : "name", "val" : "mission", "icon" : "", "title" : "Mission Statement", "type" : "page" } }
{ "_id" : "supervisory", "settings" : { "parent" : "home", "display" : "name", "val" : "supervisory", "icon" : "", "title" : "Supervisory Board", "type" : "page", "rank" : 1 } }
{ "_id" : "management", "settings" : { "parent" : "home", "display" : "name", "val" : "management", "icon" : "", "title" : "Management Board", "type" : "page", "rank" : 2 } }
