{ "_id" : "demo-blog-page", "name" : "Blog Demo", "settings" : {  }, "conditions" : "", "permissions" : "", "new" : false, "blockedBy" : "", "demo" : true, "system" : true }
{ "_id" : "demo-dataview-page", "name" : "DataView Widget Demo", "settings" : { "onExit" : "() => {console.log(\"you left dataview demo page\")}" }, "conditions" : "", "permissions" : "", "blockedBy" : "", "demo" : true, "system" : true }
{ "_id" : "demo-form-page", "name" : "Forms", "settings" : { "onEnter" : "() => {console.log(\"You just entered the Form Demo page\")}" }, "conditions" : "", "permissions" : "", "blockedBy" : "", "system" : true }
{ "_id" : "demo-mini-calendar-page", "name" : "Mini Calendar Demo", "settings" : "", "conditions" : "", "permissions" : "", "blockedBy" : "", "system" : true }
{ "_id" : "demo-panel-page", "name" : "Panel", "settings" : "", "conditions" : "", "permissions" : "", "blockedBy" : "", "demo" : true, "system" : true }
{ "_id" : "demo-rightbar-page", "name" : "RightSidebarOpen", "style" : "inherit", "settings" : { "isLeftSidebarOpen" : false, "isRightSidebarOpen" : true }, "conditions" : "", "permissions" : "", "blockedBy" : "", "system" : true }
{ "_id" : "demo-router-page", "name" : "Router Redirect", "settings" : {  }, "conditions" : { "rules" : [ { "title" : "Router Redirect", "rank" : "1", "formula" : "[role:userIsInRole(Administrator)] == true", "stop" : true, "settings" : { "redirectTo" : "/page/home" } } ] }, "permissions" : "", "new" : false, "blockedBy" : "", "system" : true }
{ "_id" : "HR", "name" : "", "style" : "inherit", "settings" : { "isLeftSidebarOpen" : false, "isRightSidebarOpen" : false }, "conditions" : "", "permissions" : "", "rank" : 0, "parent" : "", "blockedBy" : "" }
{ "_id" : "NsXeaDkaPB3eT5RG9", "name" : "RightSidebarOpen", "style" : "inherit", "settings" : "FmziA6E9j7qnBxQj7", "conditions" : "", "permissions" : "", "rank" : 20, "parent" : "zZBqtNcCWfAhX7oWC", "blockedBy" : "" }
{ "_id" : "account", "name" : "Profile", "settings" : {  }, "conditions" : "", "permissions" : "", "blockedBy" : "", "system" : true }
{ "_id" : "bank_id", "name" : "Bank", "style" : "inherit", "settings" : "fydheuaEN4BimoBDi", "conditions" : "", "permissions" : "", "rank" : 3, "parent" : "", "blockedBy" : "" }
{ "_id" : "clients_id", "name" : "Clients", "style" : "inherit", "settings" : { "isLeftSidebarOpen" : false, "isRightSidebarOpen" : false }, "conditions" : "", "permissions" : "", "rank" : 5, "parent" : "", "blockedBy" : "" }
{ "_id" : "demo-tabcontrol-page", "name" : "Tabs Demo", "style" : "inherit", "settings" : {  }, "conditions" : "", "permissions" : "", "new" : false, "blockedBy" : "", "system" : true }
{ "_id" : "home", "name" : "Home", "style" : "inherit", "settings" : "YfbvMvh7NwRNa3KPd", "conditions" : "", "permissions" : "", "main" : true, "rank" : 1, "parent" : "", "blockedBy" : "" }
{ "_id" : "hr_staff", "name" : "Staff", "style" : "inherit", "settings" : { "isLeftSidebarOpen" : false, "isRightSidebarOpen" : false }, "conditions" : "", "permissions" : "", "rank" : 0, "parent" : "hr_id", "blockedBy" : "" }
{ "_id" : "page-default", "name" : "", "settings" : { "isLeftSidebarOpen" : true, "isRightSidebarOpen" : true }, "conditions" : "", "permissions" : "", "new" : true, "blockedBy" : "", "system" : true }
{ "_id" : "plan_id", "name" : "Planning", "style" : "inherit", "settings" : "TsFzgB2b6ezk734kj", "conditions" : "", "permissions" : "", "rank" : 5, "parent" : "5797016776e7410bc0d852ce", "blockedBy" : "" }
{ "_id" : "rGRzHyYmfecf3gKaA", "name" : "Test", "style" : "inherit", "settings" : { "isLeftSidebarOpen" : false, "isRightSidebarOpen" : false }, "conditions" : "", "permissions" : "", "new" : false, "rank" : 0, "parent" : "", "blockedBy" : "" }
{ "_id" : "tasks_id", "name" : "Tasks", "style" : "inherit", "settings" : "iwyvDKfQm8crZMhzp", "conditions" : "", "permissions" : "", "rank" : 4, "parent" : "", "blockedBy" : "" }
{ "_id" : "9uLSFpwnjXLqQEcTQ", "name" : "Human Resources", "settings" : "taYN5HpyhG2d4iRBP", "conditions" : "", "permissions" : "", "new" : false, "blockedBy" : "", "system" : true }
{ "_id" : "82R5cyuz4bDh49tzC", "name" : "Human Resources", "settings" : "4xapiChYtrFSbG9PD", "conditions" : "", "permissions" : "", "new" : false, "blockedBy" : "", "system" : true }
{ "_id" : "Dj9gqYEZAH3cRssAp", "name" : "Human Resources", "settings" : "diu7FeuxxKBswk42b", "conditions" : "", "permissions" : "", "new" : false, "blockedBy" : "", "system" : true }
{ "_id" : "Xs4rxoWKp4MFFDvBq", "name" : "hr_id", "settings" : "WsZSHefxa5peQRKdk", "conditions" : "", "permissions" : "", "new" : false, "blockedBy" : "", "system" : true }
{ "_id" : "demo-filemanager-page", "name" : "Filemanager", "settings" : "", "conditions" : "", "permissions" : "", "blockedBy" : "", "demo" : true, "system" : true }
{ "_id" : "setup", "name" : "setup", "settings" : "M7nCxitKtNwvBN8zS", "conditions" : "", "permissions" : "", "new" : false, "blockedBy" : "", "system" : true }
{ "_id" : "page-media", "name" : "Media", "settings" : "w4bAexsFd5oTPLzzm", "conditions" : "", "permissions" : "", "new" : false, "blockedBy" : "", "system" : true, "parent" : "setup" }
{ "_id" : "files", "name" : "File Manager", "settings" : "YE9EsxFJBGEAKfN8H", "conditions" : "", "permissions" : "", "new" : false, "blockedBy" : "", "system" : true }
{ "_id" : "supervisory", "name" : "Supervisory Board", "settings" : "KECsgQ22CSskXYTfG", "conditions" : "", "permissions" : "", "new" : false, "blockedBy" : "", "parent" : "home" }
{ "_id" : "management", "name" : "Management Board", "settings" : "d6J6QRMoRz4497cGW", "conditions" : "", "permissions" : "", "new" : false, "blockedBy" : "", "parent" : "home" }
{ "_id" : "shareholders", "name" : "Shareholders", "settings" : "RWcp7R5Dckgb9Yotv", "conditions" : "", "permissions" : "", "new" : false, "blockedBy" : "", "parent" : "home" }
{ "_id" : "history", "name" : "History", "settings" : "AZjgBZfEoKv5Z5dsu", "conditions" : "", "permissions" : "", "new" : false, "blockedBy" : "", "parent" : "home" }
{ "_id" : "mission", "name" : "Mission Statement", "settings" : "aox7hj9q2nrcsiguq", "conditions" : "", "permissions" : "", "new" : false, "blockedBy" : "", "parent" : "home" }
{ "_id" : "sidebars", "name" : "Sidebars", "settings" : "iy8QgcDN2FfeQSQQM", "conditions" : "", "permissions" : "", "new" : false, "blockedBy" : "", "system" : false }
