{ "_id" : { "$oid" : "58c8e60d62416951c74f671a" }, "v" : 1, "key" : { "_id" : 1 }, "name" : "_id_", "ns" : "meteor.extensions" }
{ "_id" : { "$oid" : "58c8e60d62416951c74f671b" }, "v" : 1, "key" : { "_id" : 1 }, "name" : "_id_", "ns" : "meteor.demo" }
{ "_id" : { "$oid" : "58c8e60d62416951c74f671c" }, "v" : 1, "key" : { "_id" : 1 }, "name" : "_id_", "ns" : "meteor.conditions" }
{ "_id" : { "$oid" : "58c8e60d62416951c74f671d" }, "v" : 1, "key" : { "_id" : 1 }, "name" : "_id_", "ns" : "meteor.history" }
{ "_id" : { "$oid" : "58c8e60d62416951c74f671e" }, "v" : 1, "key" : { "_id" : 1 }, "name" : "_id_", "ns" : "meteor.menus" }
{ "_id" : { "$oid" : "58c8e60d62416951c74f671f" }, "v" : 1, "key" : { "_id" : 1 }, "name" : "_id_", "ns" : "meteor.menu_items" }
{ "_id" : { "$oid" : "58c8e60d62416951c74f6720" }, "v" : 1, "key" : { "_id" : 1 }, "name" : "_id_", "ns" : "meteor.pages" }
{ "_id" : { "$oid" : "58c8e60d62416951c74f6721" }, "v" : 1, "key" : { "_id" : 1 }, "name" : "_id_", "ns" : "meteor.permissions" }
{ "_id" : { "$oid" : "58c8e60d62416951c74f6722" }, "v" : 1, "key" : { "_id" : 1 }, "name" : "_id_", "ns" : "meteor.roles" }
{ "_id" : { "$oid" : "58c8e60d62416951c74f6723" }, "v" : 1, "key" : { "_id" : 1 }, "name" : "_id_", "ns" : "meteor.rooms" }
{ "_id" : { "$oid" : "58c8e60d62416951c74f6724" }, "v" : 1, "key" : { "_id" : 1 }, "name" : "_id_", "ns" : "meteor.core" }
{ "_id" : { "$oid" : "58c8e60d62416951c74f6725" }, "v" : 1, "key" : { "_id" : 1 }, "name" : "_id_", "ns" : "meteor.sysdict" }
{ "_id" : { "$oid" : "58c8e60d62416951c74f6726" }, "v" : 1, "key" : { "_id" : 1 }, "name" : "_id_", "ns" : "meteor.notifications" }
{ "_id" : { "$oid" : "58c8e60d62416951c74f6727" }, "v" : 1, "key" : { "_id" : 1 }, "name" : "_id_", "ns" : "meteor.uploads" }
{ "_id" : { "$oid" : "58c8e60d62416951c74f6728" }, "v" : 1, "key" : { "_id" : 1 }, "name" : "_id_", "ns" : "meteor.users" }
{ "_id" : { "$oid" : "58c8e60d62416951c74f6729" }, "v" : 1, "key" : { "_id" : 1 }, "name" : "_id_", "ns" : "meteor.settings" }
{ "_id" : { "$oid" : "58c8e60d62416951c74f672a" }, "v" : 1, "key" : { "_id" : 1 }, "name" : "_id_", "ns" : "meteor.widgets" }
{ "_id" : { "$oid" : "58c8e60d62416951c74f672b" }, "v" : 1, "key" : { "_id" : 1 }, "name" : "_id_", "ns" : "meteor.errors" }
{ "_id" : { "$oid" : "58c8e60d62416951c74f672c" }, "v" : 1, "key" : { "_id" : 1 }, "name" : "_id_", "ns" : "meteor.staff" }
{ "_id" : { "$oid" : "58c8e60d62416951c74f672d" }, "v" : 1, "unique" : true, "key" : { "username" : 1 }, "name" : "username_1", "ns" : "meteor.users", "sparse" : 1 }
{ "_id" : { "$oid" : "58c8e60d62416951c74f6736" }, "v" : 1, "key" : { "_id" : 1 }, "name" : "_id_", "ns" : "meteor.__pre_uploads" }
{ "_id" : { "$oid" : "58c8e60d62416951c74f6737" }, "v" : 1, "key" : { "createdAt" : 1 }, "name" : "createdAt_1", "ns" : "meteor.__pre_uploads", "expireAfterSeconds" : 10800, "background" : true }
{ "_id" : { "$oid" : "58c8e60d62416951c74f6738" }, "v" : 1, "key" : { "_id" : 1 }, "name" : "_id_", "ns" : "meteor.meteor_accounts_loginServiceConfiguration" }
{ "_id" : { "$oid" : "58c8e60d62416951c74f6739" }, "v" : 1, "unique" : true, "key" : { "service" : 1 }, "name" : "service_1", "ns" : "meteor.meteor_accounts_loginServiceConfiguration" }
