{"_id":"widgets","LastTransactionsList":{"title":"WidgetLastTransactionsListTitle"},"DashboardMessages":{"title":"WidgetDashboardMessagesTitle"},"CardsInfo":{"title":"WidgetCardsInfoTitle"},"LoansInfo":{"title":"WidgetLoansInfoTitle"},"AccountStatement":{"title":"WidgetAccountStatementTitle"},"AccountsInfo":{"title":"WidgetAccountsInfoTitle"},"LoanPayment":{"title":"WidgetLoanPaymentTitle"},"LoansRepayment":{"title":"WidgetLoansRepaymentTitle"},"Deposits":{"title":"WidgetDepositsTitle"},"ExchangeRate":{"title":"WidgetExchangeRateTitle"},"MoneyTransfer":{"title":"WidgetMoneyTransferTitle"},"MiniMoneyTransfer":{"title":"WidgetMoneyTransferTitle"},"DepositStatement":{"title":"WidgetDepositStatementTitle"},"GeneralInformation":{"title":"WidgetGeneralInformationTitle"},"LastOperations":{"title":"WidgetLastOperationsTitle"},"DashboardCalendar":{"title":"WidgetDashboardCalendarTitle"}}
{"_id":"routes","dashboard":{"title":"DashboardTitle","nested":false},"loans":{"title":"LoansTitle","nested":false},"loans_payment":{"title":"Payment","nested":true},"loans_repayment":{"title":"Repayment","nested":true},"accounts":{"title":"Accounts","nested":false},"accounts_deposits":{"title":"DepositsTitle","nested":false},"accounts_current":{"title":"CurrentAccountsTitle","nested":false},"accounts_statement":{"title":"StatementTitle","nested":true},"accounts_deposits_transfer":{"title":"TransferTitle","nested":true},"deposits_statement":{"title":"StatementTitle","nested":true},"cards":{"title":"CardsTitle","nested":false},"cards_transfer":{"title":"TransferTitle","nested":true},"profile":{"title":"ProfileTitle","nested":false}}
{"_id":"dashboard_widgets","widgets":["LastTransactionsList","DashboardMessages","MainCalendar","ExchangeRate"]}
