{ "_id" : "____blog-post", "collection" : "posts", "doc" : { "_id" : "blog-test-post", "blog" : "blog-test", "title" : { "az" : "Yaxşı vaxtlar", "en" : "Good Times", "ru" : "Хорошие времена" }, "content" : { "az" : "Salam!", "en" : "Hello!", "ru" : "Здравствуйте!" } } }
{ "_id" : "blank-extension", "collection" : "extensions", "doc" : { "_id" : "blank", "type" : "blank", "name" : "Blank", "active" : true, "author" : "Rufat Khaslarov (Zero)", "version" : "0.1", "template" : "blank-template" } }
{ "_id" : "blog-extension", "collection" : "extensions", "doc" : { "_id" : "blog", "type" : "blog", "name" : "Blog", "active" : true, "author" : "Ceyhun Esedli", "version" : "0.1", "template" : "blog-template" } }
{ "_id" : "calendar-extension", "collection" : "extensions", "doc" : { "_id" : "calendar", "type" : "mini-calendar", "name" : "Mini calendar", "active" : true, "author" : "Rufat Khaslarov", "version" : "0.1", "template" : "mini-calendar-template" } }
{ "_id" : "dataview-extension", "collection" : "extensions", "doc" : { "_id" : "dataview", "type" : "dataview", "name" : "Dataview", "template" : "dataview-template", "active" : true, "author" : "Rufat Khaslarov (ZERO)", "version" : "0.1" } }
{ "_id" : "default-permission", "collection" : "permissions", "doc" : { "_id" : "default-permission", "Read" : true, "Edit" : true, "Delete" : true } }
{ "_id" : "demo-blog-page", "collection" : "pages", "doc" : { "_id" : "demo-blog-page", "name" : "Blog Demo", "settings" : {}, "conditions" : "", "permissions" : "", "new" : false, "blockedBy" : "", "demo" : true } }
{ "_id" : "demo-dataview-item", "collection" : "demo", "doc" : { "_id" : "demo-dataview-item", "name" : "Bradley Greer", "position" : "Software Engineer", "office" : "London", "age" : 41, "startDate" : "2012/10/13", "salary" : 132000, "gender" : false } }
{ "_id" : "demo-dataview-item2", "collection" : "demo", "doc" : { "_id" : "demo-dataview-item2", "name" : "John Doe", "position" : "Software Engineer", "office" : "Baku", "age" : 25, "startDate" : "2016/10/13", "salary" : 12000, "gender" : true } }
{ "_id" : "demo-dataview-item3", "collection" : "demo", "doc" : { "_id" : "demo-dataview-item3", "name" : "Bob Marly", "position" : "Software Engineer", "office" : "Ganja", "age" : 55, "startDate" : "2010/04/13", "salary" : 15000, "gender" : true } }
{ "_id" : "demo-dataview-page", "collection" : "pages", "doc" : { "_id" : "demo-dataview-page", "name" : "DataView Widget Demo", "settings" : { "onExit" : "() => {console.log(\"you left dataview demo page\")}" }, "conditions" : "", "permissions" : "", "blockedBy" : "", "demo" : true } }
{ "_id" : "demo-filemanager-page", "collection" : "pages", "doc" : { "_id" : "demo-filemanager-page", "name" : "Filemanager", "settings" : "", "conditions" : "", "permissions" : "", "blockedBy" : "", "demo" : true } }
{ "_id" : "demo-form-page", "collection" : "pages", "doc" : { "_id" : "demo-form-page", "name" : "Forms", "settings" : { "onEnter" : "() => {console.log(\"You just entered the Form Demo page\")}" }, "conditions" : "", "permissions" : "", "blockedBy" : "" } }
{ "_id" : "demo-mini-calendar-page", "collection" : "pages", "doc" : { "_id" : "demo-mini-calendar-page", "name" : "Mini Calendar Demo", "settings" : "", "conditions" : "", "permissions" : "", "blockedBy" : "" } }
{ "_id" : "demo-panel-page", "collection" : "pages", "doc" : { "_id" : "demo-panel-page", "name" : "Panel", "settings" : "", "conditions" : "", "permissions" : "", "blockedBy" : "", "demo" : true } }
{ "_id" : "demo-rightbar-page", "collection" : "pages", "doc" : { "_id" : "demo-rightbar-page", "name" : "RightSidebarOpen", "style" : "inherit", "settings" : { "isLeftSidebarOpen" : false, "isRightSidebarOpen" : true }, "conditions" : "", "permissions" : "", "blockedBy" : "" } }
{ "_id" : "demo-router-page", "collection" : "pages", "doc" : { "_id" : "demo-router-page", "name" : "Router Redirect", "settings" : {}, "conditions" : { "rules" : [ { "title" : "Router Redirect", "rank" : "1", "formula" : "[role:userIsInRole(Administrator)] == true", "stop" : true, "settings" : { "redirectTo" : "/page/home" } } ] }, "permissions" : "", "new" : false, "blockedBy" : "" } }
{ "_id" : "demo-tabcontrol-page", "collection" : "pages", "doc" : { "_id" : "demo-tabcontrol-page", "name" : "Tabs Demo", "style" : "inherit", "settings" : {}, "conditions" : "", "permissions" : "", "new" : false, "blockedBy" : "" } }
{ "_id" : "demo-user", "collection" : "users", "doc" : { "_id" : "demo-user", "createdAt" : { "$date" : "2016-08-08T13:24:57.135+0400" }, "services" : { "password" : { "bcrypt" : "$2a$10$2Ulz0Y62ZwNAIz.ziuV7KOto60nhofmNrKLjbwsI/AvFh0Uwz/Uym" }, "resume" : { "loginTokens" : [] } }, "emails" : [ { "address" : "demo@demo", "verified" : false } ], "profile" : { "name" : "Demo User" } } }
{ "_id" : "forms-extension", "collection" : "extensions", "doc" : { "_id" : "forms", "type" : "forms", "name" : "Form", "active" : true, "author" : "Teymur Bayramov (CORE)", "version" : "0.7", "template" : "forms-template", "onSave" : "formsOnSave", "tempfields" : [ "id", "form", "readonly", "index", "system" ] } }
{ "_id" : "homepage", "collection" : "pages", "doc" : { "_id" : "home", "name" : "", "settings" : { "isLeftSidebarOpen" : false, "isRightSidebarOpen" : false }, "conditions" : "", "permissions" : "", "new" : false, "blockedBy" : "", "system" : true } }
{ "_id" : "html-extension", "collection" : "extensions", "doc" : { "_id" : "html", "type" : "html", "name" : "HTML", "active" : true, "author" : "Rufat Khaslarov (Zero)", "version" : "0.1", "template" : "html-template" } }
{ "_id" : "page-account", "collection" : "pages", "doc" : { "_id" : "account", "name" : "Profile", "settings" : {}, "conditions" : "", "permissions" : "", "blockedBy" : "" } }
{ "_id" : "page-default", "collection" : "pages", "doc" : { "_id" : "page-default", "name" : "", "settings" : { "isLeftSidebarOpen" : true, "isRightSidebarOpen" : true }, "conditions" : "", "permissions" : "", "new" : true, "blockedBy" : "" } }
{ "_id" : "panel-extension", "collection" : "extensions", "doc" : { "_id" : "ze-panel", "type" : "ze-panel", "name" : "Panel", "active" : true, "author" : "Rufat Khaslarov", "version" : "0.1", "template" : "ze-panel-template" } }
{ "_id" : "post-template", "collection" : "posts", "doc" : { "_id" : "post-template", "title" : "New Post Title", "sequence" : 0, "date" : "", "startDate" : "", "endDate" : "", "shortContent" : "Short Content (new Post)", "fullContent" : "Full Content (new Post)", "comments" : { "hidden" : false, "list" : [] }, "tags" : [], "viewCount" : 0, "hidden" : false, "deleted" : false } }
{ "_id" : "sistem-dictionary-az", "collection" : "sysdict", "doc" : { "_id" : "az", "messages" : {} } }
{ "_id" : "sistem-dictionary-en", "collection" : "sysdict", "doc" : { "_id" : "en", "messages" : { "errors" : { "save_page" : "Error when saving page", "submit_form_not_found" : "Submitting form by ID: no such form found", "submit_form_not_submitable" : "This form is not submitable (submit button not found)", "submit_form_submitCallback_error" : "An error occured when evaluating submitCallback", "submit_form_error" : "An error occured when submitting form", "file_upload_error" : "Error occured when uploading file", "setup_readonly_mode_unrecognized" : "Cannot make field readonly - unrecognized type", "calendar_event_adding" : "An error occured when adding new event to Calendar", "calendar_event_removing" : "An error occured when removing event from Calendar", "get_widget_instance_empty_object" : "Empty object is passed as widget", "token_not_found" : "Requested token could not be processed (not found)", "forms_editor_bad_input_name" : "Input not found by its name!", "forms_bad_beforeSubmit_callback" : "Thrown exception while evaluating 'beforeSubmit' callback", "forms_bad_submit_callback" : "Thrown exception while evaluating 'submit' callback", "forms_bad_afterSubmit_callback" : "Thrown exception while evaluating 'afterSubmit' callback" } } } }
{ "_id" : "sistem-dictionary-ru", "collection" : "sysdict", "doc" : { "_id" : "ru", "messages" : {} } }
{ "_id" : "slider-extension", "collection" : "extensions", "doc" : { "_id" : "slider", "type" : "slider", "name" : "Slider", "active" : true, "author" : "Ceyhun Esedli", "version" : "0.1", "template" : "slider-template" } }
{ "_id" : "tabcontrol-extension", "collection" : "extensions", "doc" : { "_id" : "tabcontrol", "type" : "tabcontrol", "name" : "Tab Control", "active" : true, "template" : "tabcontrol_template", "author" : "Teymur Bayramov (ZERO)", "version" : "0.8", "tempfields" : [ "default" ] } }
{ "_id" : "____blog-test", "collection" : "widgets", "doc" : { "_id" : "blog-test", "type" : "blog_new", "name" : "Blog Widget Template", "subscribedUsers" : [], "system" : false, "style" : { "widthMU" : 12 }, "softDeleted" : false, "new" : false, "rank" : 10, "parent" : "demo-blog-page", "demo" : true, "settings" : { "current" : { "title" : "<h4>New blog module</h4>", "info" : { "name" : "Blog testing", "description" : "Just new Blog module" }, "subscribers" : [] }, "rules" : [] } } }
{ "_id" : "blank-widget-template", "collection" : "widgets", "doc" : { "_id" : "blank-template", "type" : "blank", "name" : "Blank Widget Template", "softDeleted" : false, "style" : { "widthMU" : 4 }, "demo" : false, "settings" : { "current" : { "type" : "blank", "text" : "<h5>Blank Widget</h5>" }, "rules" : [] } } }
{ "_id" : "blog-widget-template", "collection" : "widgets", "doc" : { "_id" : "blog-template", "type" : "blog", "name" : "Blog Widget Template", "subscribedUsers" : [], "system" : false, "style" : { "widthMU" : 12 }, "softDeleted" : false, "new" : false, "rank" : 20, "demo" : false, "settings" : { "current" : { "type" : "blog", "text" : "<h5>Blog Widget</h5>", "system" : true, "template" : true, "hidden" : false, "title" : "Posts", "buttons" : { "authorWritePostButton" : { "label" : "Write post", "hidden" : false, "events" : { "click" : "(val) =>{}" } }, "subscriptionButton" : { "label" : "Subscribe", "hidden" : false, "events" : { "click" : "(val) =>{}" } }, "addCommentButton" : { "label" : "Write comment", "hidden" : false, "events" : { "click" : "(val) =>{}" } }, "readMoreButton" : { "label" : "Read More", "hidden" : false, "events" : { "click" : "(val) =>{}" } }, "readLessButton" : { "label" : "Read Less", "hidden" : false, "events" : { "click" : "(val) =>{}" } }, "sortPostsSelection" : { "label" : "Sort Posts", "options" : [ { "name" : "Date", "value" : "date" }, { "name" : "Sequence", "value" : "sequence" }, { "name" : "View", "value" : "viewcount" }, { "name" : "Comment", "value" : "commentcount" } ], "hidden" : false, "events" : { "change" : "(val) =>{}" } }, "searchPostButton" : { "label" : "Searching", "placeHolder" : "Search by title...", "hidden" : false, "events" : { "click" : "(val) =>{}" } } }, "pagination" : { "perPage" : 10, "pageCount" : 5, "showPages" : true, "showPrevious" : true, "showNext" : true, "sessionName" : "blog-posts-test-pagination" } }, "rules" : [] } } }
{ "_id" : "cabinet-menu-item", "collection" : "widgets", "doc" : { "_id" : "cabinet", "parent" : "main-menu", "position" : "right", "rank" : 10, "type" : "menu-item", "settings" : { "current" : { "parent" : "user-avatar", "display" : "name", "val" : "CURRENT_USERID", "rank" : 0, "icon" : "", "title" : "My cabinet", "type" : "account" }, "rules" : [ { "title" : "RU", "rank" : "1", "formula" : "[lang:get()*] === 'ru'", "stop" : true, "settings" : { "parent" : "user-avatar", "display" : "name", "val" : "CURRENT_USERID", "rank" : 0, "icon" : "", "title" : "Мой кабинет", "type" : "account" } }, { "title" : "AZ", "rank" : "1", "formula" : "[lang:get()*] === 'az'", "stop" : true, "settings" : { "parent" : "user-avatar", "display" : "name", "val" : "CURRENT_USERID", "rank" : 0, "icon" : "", "title" : "Şəxsi Kabinetim", "type" : "account" } } ] } } }
{ "_id" : "dataview-widget-template", "collection" : "widgets", "doc" : { "_id" : "dataview-template", "type" : "dataview", "style" : { "widthMU" : 12 }, "permissions" : { "current" : { "view" : true, "delete" : true, "edit" : true, "move" : true, "record" : { "add" : true, "edit" : true, "delete" : true } }, "rules" : [] }, "template" : true, "softDeleted" : false, "demo" : false, "settings" : { "current" : { "type" : "dataview", "content" : { "system" : { "query" : "Demo.find({})", "subscription" : "demo", "mode" : "table", "rowsPerPage" : 5, "showColumnToggles" : false, "showRowCount" : true, "showNavigation" : "always", "showNavigationRowsPerPage" : true, "noDataTmpl" : "Template.noData" }, "filters" : [ { "name" : "NameFilter", "formula" : "[dataview:col(name)*].match(:filter)" } ], "items" : [ { "itemId" : "name", "key" : "name", "label" : "Name", "settings" : { "format" : "[dataview:col(name)]" }, "hidden" : false }, { "itemId" : "office", "key" : "office", "label" : "Office", "settings" : { "format" : "[dataview:col(office)]" }, "sortOrder" : 0, "sortDirection" : "descending" }, { "itemId" : "age", "key" : "age", "label" : "Age", "settings" : { "format" : "[dataview:col(age)]" } }, { "itemId" : "startDate", "key" : "startDate", "label" : "Start Date", "settings" : { "format" : "[dataview:col(startDate date)]" } } ], "pagination" : { "perPage" : 10, "pageCount" : 5, "showPages" : true, "showPrevious" : true, "showNext" : true, "sessionName" : "dataview-test-pagination" } } }, "rules" : [] } } }
{ "_id" : "demo-blog-menu-item", "collection" : "widgets", "doc" : { "_id" : "demo-blog-menu-item", "parent" : "main-menu", "position" : "left", "rank" : 10, "type" : "menu-item", "system" : true, "settings" : { "current" : { "parent" : "demo-main-menu-item", "display" : "name", "val" : "demo-blog-page", "icon" : "", "title" : "Blog", "type" : "page" }, "rules" : [] } } }
{ "_id" : "demo-blog-widget", "collection" : "widgets", "doc" : { "_id" : "demo-blog-widget", "type" : "blog", "name" : "Blog Widget Template", "subscribedUsers" : [], "system" : false, "style" : { "widthMU" : 12 }, "softDeleted" : false, "new" : false, "rank" : 20, "parent" : "demo-blog-page", "demo" : true, "settings" : { "current" : { "type" : "blog", "text" : "<h5>Blog Widget</h5>", "system" : true, "template" : true, "hidden" : false, "title" : "Demo Blog", "buttons" : { "authorWritePostButton" : { "label" : "Write post", "hidden" : false, "events" : { "click" : "(val) =>{ App.client.core.modal.action('show', 'fixed', 'html-widget-editor'); }" } }, "subscriptionButton" : { "label" : "Subscribe", "hidden" : false, "events" : { "click" : "(val) =>{}" } }, "addCommentButton" : { "label" : "Write comment", "hidden" : false, "events" : { "click" : "(val) =>{}" } }, "readMoreButton" : { "label" : "Read More", "hidden" : false, "events" : { "click" : "(val) =>{}" } }, "readLessButton" : { "label" : "Read Less", "hidden" : false, "events" : { "click" : "(val) =>{}" } }, "sortPostsSelection" : { "label" : "Sort Posts", "options" : [ { "name" : "Date", "value" : "date" }, { "name" : "Sequence", "value" : "sequence" }, { "name" : "View", "value" : "viewcount" }, { "name" : "Comment", "value" : "commentcount" } ], "hidden" : false, "events" : { "change" : "(val) =>{}" } }, "searchPostButton" : { "label" : "Searching", "placeHolder" : "Search by title...", "hidden" : false, "events" : { "click" : "(val) =>{}" } } }, "pagination" : { "perPage" : 10, "pageCount" : 5, "showPages" : true, "showPrevious" : true, "showNext" : true, "sessionName" : "blog-posts-test-pagination" } }, "rules" : [] } } }
{ "_id" : "demo-dataview-menu-item", "collection" : "widgets", "doc" : { "_id" : "demo-dataview-menu-item", "style" : "", "parent" : "main-menu", "position" : "left", "rank" : 1, "type" : "menu-item", "system" : true, "settings" : { "current" : { "type" : "page", "val" : "demo-dataview-page", "icon" : "", "display" : "name", "parent" : "demo-main-menu-item", "title" : "Dataview", "rank" : 1 }, "rules" : [] } } }
{ "_id" : "demo-dataview-widget", "collection" : "widgets", "doc" : { "_id" : "demo-dataview-widget", "type" : "dataview", "style" : { "widthMU" : 12 }, "softDeleted" : false, "new" : false, "rank" : 10, "parent" : "demo-dataview-page", "demo" : true, "settings" : { "current" : { "type" : "dataview", "content" : { "system" : { "query" : "Demo.find({})", "subscription" : "demo", "mode" : "table", "rowsPerPage" : 5, "showColumnToggles" : false, "showRowCount" : true, "showNavigation" : "always", "showNavigationRowsPerPage" : true, "noDataTmpl" : "Template.noData" }, "filters" : [ { "name" : "NameFilter", "formula" : "[dataview:col(name)*].match(:filter)" } ], "items" : [ { "itemId" : "name", "key" : "name", "label" : "Name", "type" : "string", "settings" : { "style" : { "align" : "left", "background" : "blue darken-1" }, "format" : "[dataview:col(name)]" }, "hidden" : false }, { "itemId" : "office", "key" : "office", "label" : "Office", "type" : "string", "settings" : { "format" : "[dataview:col(office)]" }, "sortOrder" : 0, "sortDirection" : "descending" }, { "itemId" : "age", "key" : "age", "label" : "Age", "type" : "number", "settings" : { "format" : "[dataview:col(age)]" } }, { "itemId" : "startDate", "key" : "startDate", "label" : "Start Date", "type" : "date", "settings" : { "format" : "[dataview:col(startDate date)]" } }, { "itemId" : "deleteBtn", "key" : "deleteBtn", "label" : "Delete", "type" : "action", "settings" : { "format" : "[dataview:col(delete delete)]" } }, { "itemId" : "justBtn", "key" : "justBtn", "label" : "Button", "type" : "action", "settings" : { "format" : "[dataview:col(id,Caption button)]" } } ], "pagination" : { "perPage" : 10, "pageCount" : 5, "showPages" : true, "showPrevious" : true, "showNext" : true, "sessionName" : "dataview-test-pagination" }, "events" : { "onClick" : { "id" : "(e, object) => {}" }, "onRemove" : "(e, object) => {}" } } }, "rules" : [] } } }
{ "_id" : "demo-filemanager-dataview-widget", "collection" : "widgets", "doc" : { "_id" : "demo-filemanager-dataview-widget", "type" : "dataview", "style" : { "widthMU" : 12 }, "softDeleted" : false, "new" : false, "rank" : 10, "parent" : "demo-filemanager-page", "demo" : true, "settings" : { "current" : { "type" : "dataview", "content" : { "system" : { "query" : "Uploads.find({})", "mode" : "table", "rowsPerPage" : 5, "showColumnToggles" : false, "showRowCount" : true, "showNavigation" : "always", "showNavigationRowsPerPage" : true, "noDataTmpl" : "Template.noData" }, "filters" : [ { "name" : "NameFilter", "formula" : "[dataview:col(name)*].match(:filter)" } ], "items" : [ { "itemId" : "path", "key" : "path", "label" : "Preview", "settings" : { "format" : "[dataview:col(path lightbox)]" }, "hidden" : false }, { "itemId" : "name", "key" : "name", "label" : "Name", "settings" : { "format" : "[dataview:col(name)]" }, "hidden" : false }, { "itemId" : "size", "key" : "size", "label" : "Size", "settings" : { "format" : "[dataview:col(size)]" }, "hidden" : false, "sortOrder" : 0, "sortDirection" : "descending" }, { "itemId" : "ext", "key" : "ext", "label" : "Extension", "settings" : { "format" : "[dataview:col(extension)]" }, "hidden" : false }, { "itemId" : "mime", "key" : "mime", "label" : "Type", "settings" : { "format" : "[dataview:col(type)]" } }, { "itemId" : "userId", "key" : "userId", "label" : "User ID", "settings" : { "format" : "[dataview:col(userId)]" } }, { "itemId" : "uploadedAt", "key" : "uploadedAt", "label" : "Uploaded At", "settings" : { "format" : "[dataview:col(meta.uploadedAt)]" } }, { "itemId" : "tags", "key" : "tags", "label" : "Tags", "settings" : { "format" : "[dataview:col(meta.tags)]" } }, { "itemId" : "url", "key" : "url", "label" : "Url", "settings" : { "format" : "[dataview:col(play_for_work icon)]", "onClick" : "(doc) => {window.open(doc.path, '_blank');}" } }, { "itemId" : "deleteBtn", "key" : "deleteBtn", "label" : "Delete", "settings" : { "format" : "[dataview:col(delete icon)]", "onClick" : "(doc) => {App.client.core.file.remove(doc._id)}" } } ], "pagination" : { "perPage" : 10, "pageCount" : 5, "showPages" : true, "showPrevious" : true, "showNext" : true, "sessionName" : "dataview-filemanager-pagination" } } }, "rules" : [] } } }
{ "_id" : "demo-filemanager-dropzone", "collection" : "widgets", "doc" : { "_id" : "demo-filemanager-dropzone", "type" : "forms", "style" : { "widthMU" : 12 }, "softDeleted" : false, "demo" : true, "new" : false, "rank" : -1, "parent" : "demo-filemanager-page", "childModals" : [ { "id" : "zeredit-s-json", "type" : "modalFixed" }, { "id" : "zeredit-s-events", "type" : "modalFixed" } ], "settings" : { "current" : { "type" : "forms", "content" : { "items" : [ { "itemId" : "default3", "type" : "forms-files-dropzone", "settings" : { "style" : { "image" : "url('/images/256.png')", "height" : "160" }, "meta" : { "tags" : [ "file" ] }, "hidden" : false }, "style" : { "widthMU" : 12 }, "new" : true, "form" : "rw5iMZ83MG3Tg4QEx", "id" : "forms-files-dropzone-rw5iMZ83MG3Tg4QEx-default3", "system" : false, "demo" : "true" } ] }, "system" : false, "readOnly" : false, "events" : { "submit" : "" } }, "rules" : [] } } }
{ "_id" : "demo-filemanager-menu-item", "collection" : "widgets", "doc" : { "_id" : "demo-filemanager-menu-item", "style" : "", "parent" : "main-menu", "position" : "left", "rank" : 10, "type" : "menu-item", "system" : true, "settings" : { "current" : { "type" : "page", "val" : "demo-filemanager-page", "icon" : "", "display" : "name", "parent" : "demo-main-menu-item", "title" : "Filemanager", "rank" : 10 }, "rules" : [] } } }
{ "_id" : "demo-form-menu-item", "collection" : "widgets", "doc" : { "_id" : "demo-form-menu-item", "style" : "", "parent" : "main-menu", "position" : "left", "rank" : 4, "type" : "menu-item", "system" : true, "settings" : { "current" : { "type" : "page", "val" : "demo-form-page", "icon" : "", "display" : "name", "parent" : "demo-main-menu-item", "title" : "Forms ", "rank" : 4 }, "rules" : [] } } }
{ "_id" : "demo-forms-upload-widget", "collection" : "widgets", "doc" : { "_id" : "demo-forms-upload-widget", "type" : "forms", "style" : { "widthMU" : 4 }, "rank" : 20, "parent" : "demo-form-page", "new" : false, "childModals" : [ { "id" : "zeredit-s-json", "type" : "modalFixed" }, { "id" : "zeredit-s-events", "type" : "modalFixed" } ], "demo" : true, "settings" : { "current" : { "type" : "forms", "content" : { "items" : [ { "type" : "forms-files", "settings" : { "label" : "Select", "hidden" : false }, "itemId" : "fileUpload", "form" : "demo-forms-upload-widget", "id" : "forms-files-forms-upload-demo-fileUpload", "readOnly" : false, "index" : 0, "validation" : "(x) => {return false;}", "demo" : true }, { "type" : "forms-submit", "settings" : { "value" : "Send files", "hidden" : false }, "style" : { "widthMU" : 6 }, "itemId" : "sendFiled", "form" : "demo-forms-upload-widget", "id" : "forms-submit-forms-upload-demo-sendFiled", "index" : 1, "demo" : true }, { "name" : "default3", "type" : "forms-files-dropzone", "settings" : { "system" : false, "label" : "Drop your file here!", "meta" : { "tags" : [ "user", "photo", "pictures" ] }, "style" : { "active" : { "background" : "blue darken-1" } }, "hidden" : false }, "style" : { "widthMU" : 12 }, "new" : true, "itemId" : "DropZone", "form" : "demo-forms-upload-widget", "id" : "forms-files-dropzone-forms-upload-demo-DropZone", "readOnly" : false, "demo" : true } ] }, "validate" : [], "readOnly" : false, "name" : "demo_upload_form", "events" : { "submit" : "(x) => {console.log(\"This is submit callback\"); console.log(x);}" } }, "rules" : [] } } }
{ "_id" : "demo-forms-widget", "collection" : "widgets", "doc" : { "_id" : "demo-forms-widget", "parent" : "demo-form-page", "rank" : 10, "type" : "forms", "style" : { "widthMU" : 6 }, "template" : true, "new" : false, "demo" : true, "childModals" : [ { "id" : "zeredit-s-json", "type" : "modalFixed" }, { "id" : "zeredit-s-events", "type" : "modalFixed" } ], "settings" : { "current" : { "type" : "forms", "content" : { "items" : [ { "settings" : { "events" : { "click" : "(val) => { Materialize.toast(val, 5000); }" }, "value" : "QwErTy", "system" : true, "hidden" : false }, "type" : "forms-button", "style" : { "widthMU" : 6 }, "form" : "demo-forms-widget", "id" : "forms-button-forms-fulldemo-dummybtn", "index" : 0, "itemId" : "dummybtn", "demo" : true, "hidden" : true }, { "settings" : { "content" : { "preselected" : 2, "items" : [ { "settings" : { "label" : "Zero", "value" : "zer0", "hidden" : false } }, { "settings" : { "label" : "One", "value" : "one1", "hidden" : false } }, { "settings" : { "label" : "Two", "value" : "two2", "hidden" : false } } ] }, "value" : "", "label" : "Selection", "system" : true, "hidden" : false }, "type" : "forms-select", "style" : { "widthMU" : 6 }, "form" : "demo-forms-widget", "id" : "forms-select-forms-fulldemo-slct2", "index" : 1, "itemId" : "slct2", "demo" : true, "hidden" : true }, { "settings" : { "label" : "checkbox filled-in", "value" : false, "system" : true, "hidden" : false }, "type" : "forms-checkbox", "style" : { "widthMU" : 6 }, "form" : "demo-forms-widget", "id" : "forms-checkbox-forms-fulldemo-chkbox", "index" : 2, "itemId" : "chkbox", "demo" : true, "hidden" : true }, { "settings" : { "offLabel" : "OFF", "onLabel" : "ON", "label" : "Switch this", "system" : true, "hidden" : false }, "type" : "forms-switch", "style" : { "widthMU" : 6 }, "form" : "demo-forms-widget", "id" : "forms-switch-forms-fulldemo-switch", "index" : 3, "itemId" : "switch", "demo" : true, "hidden" : true }, { "type" : "forms-radio-group", "settings" : { "content" : { "items" : [ { "type" : "forms-radio", "settings" : { "label" : "this is radio 1", "value" : "default-1", "hidden" : false }, "itemId" : "radio" }, { "type" : "forms-radio", "settings" : { "label" : "this is radio 2", "value" : "default-2", "hidden" : false }, "itemId" : "radio1" } ], "group" : "DemoGroupName" }, "system" : true, "hidden" : false }, "style" : { "widthMU" : 6 }, "form" : "demo-forms-widget", "id" : "forms-radio-group-forms-fulldemo-chkc", "readOnly" : false, "index" : 4, "itemId" : "chkc", "demo" : true, "hidden" : true }, { "type" : "forms-number", "settings" : { "label" : "Number:", "min" : 4, "max" : 8, "system" : true, "hidden" : false }, "style" : { "widthMU" : 6 }, "form" : "demo-forms-widget", "id" : "forms-number-forms-fulldemo-num", "index" : 5, "itemId" : "num", "demo" : true, "hidden" : true }, { "settings" : { "label" : "Hello, World!", "icon" : "edit_mode", "value" : "", "placeholder" : "", "system" : true, "hidden" : false }, "type" : "forms-text", "style" : { "widthMU" : 6 }, "form" : "demo-forms-widget", "id" : "forms-text-forms-fulldemo-txt", "index" : 6, "itemId" : "txt", "demo" : true, "hidden" : true }, { "settings" : { "label" : "Pick a datetime-local", "system" : true, "hidden" : false }, "type" : "forms-datetime-local", "style" : { "widthMU" : 6 }, "form" : "demo-forms-widget", "id" : "forms-datetime-local-forms-fulldemo-datetimelocal", "index" : 7, "itemId" : "datetimelocal", "demo" : true, "hidden" : true }, { "settings" : { "label" : "Pick a date!", "pickadate" : { "selectMonths" : true, "selectYears" : 15 }, "system" : true, "hidden" : false }, "type" : "forms-date", "style" : { "widthMU" : 6 }, "form" : "demo-forms-widget", "id" : "forms-date-forms-fulldemo-date", "index" : 8, "itemId" : "date", "demo" : true, "hidden" : true }, { "settings" : { "label" : "Pick a time!", "system" : true, "hidden" : false }, "type" : "forms-time", "style" : { "widthMU" : 6 }, "form" : "demo-forms-widget", "id" : "forms-time-forms-fulldemo-time", "index" : 9, "itemId" : "time", "demo" : true, "hidden" : true }, { "settings" : { "label" : "Pick a color!", "system" : true, "hidden" : false }, "type" : "forms-color", "style" : { "widthMU" : 6 }, "form" : "demo-forms-widget", "id" : "forms-color-forms-fulldemo-color", "index" : 10, "itemId" : "color", "demo" : true, "hidden" : true }, { "settings" : { "label" : "What do you want to find?", "system" : true, "hidden" : false }, "type" : "forms-search", "style" : { "widthMU" : 6 }, "form" : "demo-forms-widget", "id" : "forms-search-forms-fulldemo-src", "index" : 11, "itemId" : "src", "demo" : true, "hidden" : true }, { "settings" : { "label" : "pick from 0 to 384", "min" : 0, "max" : 384, "system" : true, "hidden" : false }, "type" : "forms-range", "style" : { "widthMU" : 6 }, "form" : "demo-forms-widget", "id" : "forms-range-forms-fulldemo-range", "index" : 12, "itemId" : "range", "demo" : true, "hidden" : true }, { "settings" : { "label" : "Enter your mail!", "system" : true, "hidden" : false }, "type" : "forms-email", "style" : { "widthMU" : 6 }, "form" : "demo-forms-widget", "id" : "forms-email-forms-fulldemo-email", "index" : 13, "itemId" : "email", "demo" : true, "hidden" : true }, { "settings" : { "label" : "Password!", "system" : true, "hidden" : false }, "type" : "forms-password", "style" : { "widthMU" : 6 }, "form" : "demo-forms-widget", "id" : "forms-password-forms-fulldemo-password", "index" : 14, "itemId" : "password", "demo" : true, "validation" : "(s) => {if(s.length < 6) return 'Too little number of characters'; else return true}", "hidden" : true }, { "settings" : { "label" : "polylineal", "value" : "Sample Text Sample Text Sample Text Sample Text Sample Text \nSample Text Sample Text Sample Text Sample Text \nSample Text ", "maxlength" : 50, "system" : true, "hidden" : false }, "type" : "forms-textarea", "style" : { "widthMU" : 6 }, "form" : "demo-forms-widget", "id" : "forms-textarea-forms-fulldemo-area", "index" : 15, "itemId" : "area", "demo" : true, "hidden" : true }, { "type" : "forms-submit", "settings" : { "events" : { "click" : "() => {\n\tMaterialize.toast('clicked!', 1000); \n}" }, "value" : "Submit this form 2!", "system" : true, "hidden" : false }, "style" : { "widthMU" : 6 }, "form" : "demo-forms-widget", "id" : "forms-submit-forms-fulldemo-submitBtn", "index" : 16, "itemId" : "submitBtn", "demo" : true, "hidden" : true } ] }, "validate" : [ { "itemId" : "password", "required" : true, "match" : { "pattern" : "", "flags" : "" }, "length" : { "max" : 14, "min" : 4 } }, { "itemId" : "txt", "required" : false, "match" : { "pattern" : "^[0-9]+$", "flags" : "" }, "length" : "" } ], "events" : { "beforeSubmit" : "(x) => {Materialize.toast('This is before-submit callback!'); return {}}", "submit" : "(x) => {Materialize.toast('This is submit callback!'); return {}}", "afterSubmit" : "(x) => {Materialize.toast('This is after-submit callback!'); return {}}" }, "readOnly" : false, "name" : "zero_demo_form", "system" : true }, "rules" : [] } } }
{ "_id" : "demo-main-menu-item", "collection" : "widgets", "doc" : { "_id" : "demo-main-menu-item", "style" : "", "parent" : "main-menu", "position" : "left", "rank" : -10, "type" : "menu-item", "system" : true, "settings" : { "current" : { "rank" : -10, "title" : "Demo", "parent" : "left-menu", "display" : "name", "icon" : "", "type" : "page", "val" : "" }, "rules" : [ { "title" : "Demo is visible", "rank" : 1, "formula" : "[role:userIsInRole(Administrator)]", "stop" : true, "settings" : { "hidden" : false } }, { "title" : "Demo is invisible", "rank" : 2, "formula" : "![role:userIsInRole(Administrator)]", "stop" : true, "settings" : { "hidden" : true } } ] } } }
{ "_id" : "demo-mini-calendar-menu-item", "collection" : "widgets", "doc" : { "_id" : "demo-mini-calendar-menu-item", "style" : "", "parent" : "main-menu", "position" : "left", "rank" : 3, "type" : "menu-item", "settings" : { "current" : { "type" : "page", "val" : "demo-mini-calendar-page", "icon" : "", "display" : "name", "parent" : "demo-main-menu-item", "title" : "Mini Calendar", "rank" : 3 }, "rules" : [] } }, "parent" : "main-menu" }
{ "_id" : "demo-mini-calendar-widget", "collection" : "widgets", "doc" : { "_id" : "demo-mini-calendar-widget", "type" : "mini-calendar", "name" : "Template Mini-calendar", "style" : { "widthMU" : 4 }, "softDeleted" : false, "rank" : 10, "parent" : "demo-mini-calendar-page", "new" : false, "demo" : true, "settings" : { "current" : { "type" : "mini-calendar", "color" : "#577e9a", "color2" : "#57c8bf", "sundayStart" : false }, "rules" : [] } } }
{ "_id" : "demo-panel-html-widget", "collection" : "widgets", "doc" : { "_id" : "demo-panel-html-widget", "type" : "html", "name" : "Template HTML", "style" : { "widthMU" : 12 }, "softDeleted" : false, "new" : false, "rank" : 10, "parent" : "demo-panel-widget", "demo" : true, "settings" : { "current" : { "type" : "html", "html" : "<h2>Panel Entry</h2>", "system" : true }, "rules" : [] } } }
{ "_id" : "demo-panel-menu-item", "collection" : "widgets", "doc" : { "_id" : "demo-panel-menu-item", "style" : "", "parent" : "main-menu", "position" : "left", "rank" : 2, "type" : "menu-item", "settings" : { "current" : { "type" : "page", "val" : "demo-panel-page", "icon" : "", "display" : "name", "parent" : "demo-main-menu-item", "title" : "Panel", "rank" : 2 }, "rules" : [] } }, "parent" : "main-menu" }
{ "_id" : "demo-panel-modal-html-widget", "collection" : "widgets", "doc" : { "_id" : "demo-panel-modal-html-widget", "type" : "html", "name" : "Template HTML", "style" : { "widthMU" : 12 }, "softDeleted" : false, "new" : false, "rank" : 10, "parent" : "demo-panel-modal-widget", "demo" : true, "settings" : { "current" : { "type" : "html", "html" : "<h5>Write it in console: App.client.core.modal.action('show', 'fixed', 'demo-panel-modal-widget')</h5>", "system" : true }, "rules" : [] } } }
{ "_id" : "demo-panel-modal-widget", "collection" : "widgets", "doc" : { "_id" : "demo-panel-modal-widget", "type" : "ze-panel", "name" : "Modal Panel", "style" : { "widthMU" : 12 }, "softDeleted" : false, "new" : false, "rank" : 10, "parent" : "demo-panel-page", "demo" : true, "settings" : { "current" : { "type" : "ze-panel", "mode" : "modal", "visible" : true, "system" : false }, "rules" : [] } } }
{ "_id" : "demo-panel-sidebar-widget", "collection" : "widgets", "doc" : { "_id" : "demo-panel-sidebar-widget", "type" : "ze-panel", "name" : "Sidebar Panel", "style" : { "widthMU" : 12 }, "softDeleted" : false, "new" : false, "rank" : 20, "parent" : "demo-panel-page", "demo" : true, "settings" : { "current" : { "type" : "ze-panel", "mode" : "sidebar", "position" : "right", "visible" : true, "system" : false }, "rules" : [] } } }
{ "_id" : "demo-panel-widget", "collection" : "widgets", "doc" : { "_id" : "demo-panel-widget", "type" : "ze-panel", "name" : "Template Panel", "style" : { "widthMU" : 12 }, "softDeleted" : false, "rank" : 10, "parent" : "demo-panel-page", "new" : false, "demo" : true, "settings" : { "current" : { "type" : "ze-panel", "template" : false, "hidden" : false, "disabled" : false }, "rules" : [] } } }
{ "_id" : "demo-rightbar-menu-item", "collection" : "widgets", "doc" : { "_id" : "demo-rightbar-menu-item", "parent" : "main-menu", "position" : "left", "rank" : 6, "type" : "menu-item", "settings" : { "current" : { "parent" : "demo-main-menu-item", "display" : "name", "val" : "demo-rightbar-page", "rank" : 6, "icon" : "", "title" : "Right Sidebar", "type" : "page" }, "rules" : [] } }, "parent" : "main-menu" }
{ "_id" : "demo-router-menu-item", "collection" : "widgets", "doc" : { "_id" : "demo-router-menu-item", "parent" : "main-menu", "position" : "left", "rank" : 5, "type" : "menu-item", "settings" : { "current" : { "parent" : "demo-main-menu-item", "display" : "name", "val" : "demo-router-page", "rank" : 5, "icon" : "", "title" : "Router Redirect", "type" : "page" }, "rules" : [] } }, "parent" : "main-menu" }
{ "_id" : "demo-tabcontrol-menu-item", "collection" : "widgets", "doc" : { "_id" : "demo-tabcontrol-menu-item", "parent" : "main-menu", "position" : "left", "rank" : 10, "type" : "menu-item", "settings" : { "current" : { "parent" : "demo-main-menu-item", "display" : "name", "val" : "demo-tabcontrol-page", "icon" : "", "title" : "Tab Control", "type" : "page" }, "rules" : [] } }, "parent" : "main-menu" }
{ "_id" : "demo-tabcontrol-widget", "collection" : "widgets", "doc" : { "_id" : "demo-tabcontrol-widget", "name" : "TabControl Template Widget", "type" : "tabcontrol", "style" : { "wrapper" : {}, "widthMU" : 8 }, "softDeleted" : false, "new" : false, "rank" : 10, "parent" : "demo-tabcontrol-page", "demo" : true, "settings" : { "current" : { "content" : { "default" : 0, "items" : [ { "mode" : "tab", "settings" : { "title" : "Tab", "icon" : "tab", "hidden" : false, "disabled" : false, "contentID" : "" }, "itemId" : "TabTemplate" }, { "mode" : "link", "settings" : { "title" : "Link", "icon" : "link", "target" : "_blank", "href" : "http://accessbank.az", "hidden" : false, "disabled" : false }, "itemId" : "LinkTemplate" }, { "mode" : "modal", "settings" : { "title" : "Modal", "icon" : "web", "modalID" : "TestModal", "modalTabType" : "trigger", "modalOptions" : {}, "modalData" : { "title" : "Testing...", "content" : "blank-widget", "data" : "function() { return {};}" }, "hidden" : false, "disabled" : false }, "itemId" : "ModalTemplate" } ] }, "position" : "top", "system" : false }, "rules" : [] } } }
{ "_id" : "error-list-widget", "collection" : "widgets", "doc" : { "_id" : "error-list", "parent" : "RSBTabControl_ErrorsPanel", "rank" : 0, "type" : "errorout", "style" : { "widthMU" : 12 }, "softDeleted" : false, "demo" : false, "system" : true, "settings" : { "current" : { "hidden" : false }, "rules" : [ { "title" : "Error output is visible", "rank" : 1, "formula" : "App.client.core.modes.debug.status", "stop" : true, "settings" : { "hidden" : false } }, { "title" : "Error output is invisible", "rank" : 2, "formula" : "!App.client.core.modes.debug.status", "stop" : true, "settings" : { "hidden" : false } } ] } } }
{ "_id" : "form-widget-template", "collection" : "widgets", "doc" : { "_id" : "forms-template", "type" : "forms", "style" : { "widthMU" : 4 }, "template" : true, "softDeleted" : false, "demo" : false, "settings" : { "current" : { "type" : "forms", "content" : { "items" : [ { "type" : "forms-text", "settings" : { "label" : "this must be invisible", "hidden" : true }, "itemId" : "default" }, { "type" : "forms-text", "settings" : { "label" : "Visible", "icon" : "mode_edit", "hidden" : false }, "itemId" : "default1" }, { "type" : "forms-submit", "settings" : { "events" : { "click" : "() => { Materialize.toast('clicked!', 3000); }" }, "value" : "Submit this form!", "hidden" : false }, "itemId" : "submitBtn" } ] }, "events" : { "submit" : "(x) => {Materialize.toast(\"Submit worked\")}" } }, "rules" : [] } } }
{ "_id" : "html-widget-template", "collection" : "widgets", "doc" : { "_id" : "html-template", "displayID" : "html-template", "type" : "html", "name" : "Template HTML", "rank" : 10, "new" : true, "parent" : "", "style" : { "widthMU" : 4 }, "permissions" : { "current" : { "view" : true, "edit" : true, "move" : true, "delete" : true }, "rules" : [] }, "softDeleted" : false, "template" : true, "demo" : false, "settings" : { "current" : { "type" : "html", "title" : "Title (New Post)", "html" : "Html content" }, "rules" : [] } } }
{ "_id" : "logo-menu-item", "collection" : "widgets", "doc" : { "_id" : "logo-menu-item", "style" : "", "parent" : "main-menu", "position" : "left", "rank" : -999, "type" : "menu-item", "settings" : { "current" : { "rank" : -999, "title" : "", "parent" : "left-menu", "display" : "icon", "image" : "/images/logo.png", "type" : "page", "val" : "home" }, "rules" : [] } }, "parent" : "main-menu" }
{ "_id" : "logout-menu-item", "collection" : "widgets", "doc" : { "_id" : "logout", "style" : "", "parent" : "main-menu", "position" : "right", "rank" : 1, "type" : "menu-item", "system" : true, "settings" : { "current" : { "type" : "action", "val" : "Meteor.logout", "icon" : "", "display" : "name", "parent" : "user-avatar", "title" : "Logout", "rank" : 1 }, "rules" : [ { "title" : "RU", "rank" : "1", "formula" : "[lang:get()*] === 'ru'", "stop" : true, "settings" : { "title" : "Выход" } }, { "title" : "AZ", "rank" : "2", "formula" : "[lang:get()*] === 'az'", "stop" : true, "settings" : { "title" : "Çıxış" } } ] } } }
{ "_id" : "lsb-extensions-panel-widget", "collection" : "widgets", "doc" : { "_id" : "lsb-extensions-panel-widget", "type" : "ze-panel", "name" : "LSB-extension-list-panel", "style" : { "widthMU" : 12 }, "rank" : 0, "parent" : "leftSideBar", "softDeleted" : false, "demo" : false, "new" : false, "system" : true, "settings" : { "current" : { "type" : "ze-panel" }, "rules" : [ { "title" : "EL is visible", "rank" : 1, "formula" : "App.client.core.modes.edit.status", "stop" : true, "settings" : { "hidden" : false } }, { "title" : "EL is invisible", "rank" : 2, "formula" : "!App.client.core.modes.edit.status", "stop" : true, "settings" : { "hidden" : true } } ] } } }
{ "_id" : "lsb-extensions-widget", "collection" : "widgets", "doc" : { "_id" : "LSB-extensions-list", "type" : "my_widget_list", "name" : "all_extensions", "rank" : 0, "parent" : "lsb-extensions-panel-widget", "style" : { "widthMU" : 12 }, "softDeleted" : false, "system" : true, "demo" : false, "settings" : { "current" : {}, "rules" : [] } } }
{ "_id" : "menu-item-widget-template", "collection" : "widgets", "doc" : { "_id" : "menu-item-widget-template", "parent" : "main-menu", "type" : "menu-item", "template" : true, "softDeleted" : false, "settings" : { "current" : { "parent" : "left-menu", "display" : "name", "val" : "", "icon" : "", "title" : "Template", "type" : "page", "hidden" : true, "rank" : 0 }, "rules" : [] } } }
{ "_id" : "messages-list-widget", "collection" : "widgets", "doc" : { "_id" : "messages-list", "parent" : "RSBTabControl_MessagesPanel", "rank" : 0, "type" : "messages-list", "style" : { "widthMU" : 12 }, "softDeleted" : false, "demo" : false, "system" : true, "settings" : { "current" : {}, "rules" : [] } } }
{ "_id" : "messages-menu-item", "collection" : "widgets", "doc" : { "_id" : "messages", "style" : "", "system" : true, "parent" : "main-menu", "position" : "right", "rank" : 2, "type" : "menu-item", "settings" : { "current" : { "type" : "action", "val" : "() => { App.client.core.modes.message.toggle(() => { App.client.core.sidebar.set('RSBTabControl_MessagesPanel', App.client.core.modes.message.status, true); })}", "title" : "", "icon" : "email", "display" : "icon", "parent" : "right-menu", "rank" : 2, "badge" : "Messages.find({new: true}).count()" }, "rules" : [] } }, "parent" : "main-menu" }
{ "_id" : "mini-calendar-event-add-form-widget", "collection" : "widgets", "doc" : { "_id" : "add-calendar-event-form", "rank" : 0, "type" : "forms", "style" : { "widthMU" : 4 }, "softDeleted" : false, "demo" : false, "settings" : { "current" : { "type" : "forms", "content" : { "items" : [ { "settings" : { "label" : "Event name!", "icon" : "mode_edit", "value" : "", "placeholder" : "", "hidden" : false }, "type" : "forms-text", "itemId" : "event_name" }, { "settings" : { "label" : "Pick a date!", "pickadate" : { "selectMonths" : true, "selectYears" : 15 }, "hidden" : false }, "type" : "forms-date", "itemId" : "event_date" } ] }, "readOnly" : false, "events" : {} }, "rules" : [] } } }
{ "_id" : "mini-calendar-widget-template", "collection" : "widgets", "doc" : { "_id" : "mini-calendar-template", "type" : "mini-calendar", "name" : "Template Mini-calendar", "style" : { "widthMU" : 4 }, "softDeleted" : false, "template" : true, "demo" : false, "settings" : { "current" : { "color" : "#577e9a", "color2" : "#57c8bf", "sundayStart" : false, "type" : "mini-calendar" }, "rules" : [] } } }
{ "_id" : "notifications-list-widget", "collection" : "widgets", "doc" : { "_id" : "notification-list", "parent" : "RSBTabControl_NotificationsPanel", "rank" : 0, "type" : "notification-list", "style" : { "widthMU" : 12 }, "softDeleted" : false, "demo" : false, "system" : true, "settings" : { "current" : { "hidden" : true }, "rules" : [ { "title" : "Notifications is visible", "rank" : 1, "formula" : "App.client.core.modes.notification.status", "stop" : true, "settings" : { "hidden" : false } }, { "title" : "Notifications is invisible", "rank" : 2, "formula" : "!App.client.core.modes.notification.status", "stop" : true, "settings" : { "hidden" : true } } ] } } }
{ "_id" : "notifications-menu-item", "collection" : "widgets", "doc" : { "_id" : "notifications", "style" : "", "system" : true, "parent" : "main-menu", "position" : "right", "rank" : 2, "type" : "menu-item", "settings" : { "current" : { "type" : "action", "val" : "() => { App.client.core.modes.notification.toggle(() => { App.client.core.sidebar.set('RSBTabControl_NotificationsPanel', App.client.core.modes.notification.status, true); })}", "title" : "", "image" : "/images/notification.svg", "display" : "icon", "parent" : "right-menu", "rank" : 2, "badge" : "Notifications.find({new: true}).count()" }, "rules" : [] } }, "parent" : "main-menu" }
{ "_id" : "page-add-form-widget", "collection" : "widgets", "doc" : { "_id" : "page-add-form", "type" : "forms", "rank" : 20, "style" : { "widthMU" : 6 }, "softDeleted" : false, "demo" : false, "settings" : { "current" : { "type" : "forms", "content" : { "items" : [ { "itemId" : "page_json", "settings" : { "label" : "JSON", "value" : "", "tinymce" : false, "hidden" : false }, "type" : "forms-jsoneditor", "style" : { "widthMU" : 12 } }, { "type" : "forms-submit", "itemId" : "submitPageAdding", "settings" : { "events" : { "click" : "() => {\n\t App.client.core.error.create(\"form onClick Submit\", \"Page added successfully\")\n}" }, "value" : "Save changes", "hidden" : false }, "style" : { "widthMU" : 12 } } ] }, "events" : { "submit" : "App.client.widgets.core.page.addPage" } }, "rules" : [] } } }
{ "_id" : "panel-widget-template", "collection" : "widgets", "doc" : { "_id" : "ze-panel-template", "type" : "ze-panel", "name" : "Template Panel", "style" : { "widthMU" : 12 }, "softDeleted" : false, "template" : true, "demo" : false, "settings" : { "current" : { "type" : "ze-panel", "html" : "<h2> Default Settings </h2>", "hidden" : false }, "rules" : [] } } }
{ "_id" : "rsb-tabcontrol-error-panel-widget", "collection" : "widgets", "doc" : { "_id" : "RSBTabControl_ErrorsPanel", "type" : "ze-panel", "style" : { "widthMU" : 12 }, "softDeleted" : false, "demo" : false, "system" : true, "settings" : { "current" : { "type" : "ze-panel", "mode" : "sidebar", "position" : "right", "hidden" : false, "status" : "debug" }, "rules" : [] } } }
{ "_id" : "rsb-tabcontrol-messages-panel-widget", "collection" : "widgets", "doc" : { "_id" : "RSBTabControl_MessagesPanel", "type" : "ze-panel", "name" : "RSB TabControl Messages Panel", "style" : { "widthMU" : 12 }, "softDeleted" : false, "demo" : false, "system" : true, "settings" : { "current" : { "type" : "ze-panel", "mode" : "sidebar", "position" : "right", "status" : "message", "hidden" : false }, "rules" : [] } } }
{ "_id" : "rsb-tabcontrol-notifications-panel-widget", "collection" : "widgets", "doc" : { "_id" : "RSBTabControl_NotificationsPanel", "type" : "ze-panel", "name" : "RSB TabControl Notifications Panel", "style" : { "widthMU" : 12 }, "softDeleted" : false, "demo" : false, "system" : true, "settings" : { "current" : { "type" : "ze-panel", "mode" : "sidebar", "position" : "right", "status" : "notification", "hidden" : false, "system" : true }, "rules" : [] } } }
{ "_id" : "rsb-tabcontrol-widget", "collection" : "widgets", "doc" : { "_id" : "RSBTabControl", "name" : "TabControlDemoWidget", "type" : "tabcontrol", "parent" : "rightSideBar", "rank" : 0, "style" : { "wrapper" : {}, "widthMU" : 12 }, "softDeleted" : false, "demo" : false, "settings" : { "current" : { "_id" : "RSBTabControl", "content" : { "default" : 0, "items" : [ { "mode" : "tab", "settings" : { "_id" : "RSBTabControl_ErrorsTab", "title" : "Errors", "contentID" : "RSBTabControl_ErrorsPanel", "system" : true, "icon" : "error_outline", "hidden" : true, "disabled" : false }, "itemId" : "RSB_Errors", "system" : true, "conditions" : { "_id" : "RSBTabControl_ErrorTabVisibility", "rules" : [ { "title" : "RSB-TC Show errors first", "rank" : 1, "formula" : "App.client.core.modes.debug.get()", "stop" : true, "settings" : "SystemCommonSettings_Unhidden" }, { "title" : "RSB-TC Show Notifications first", "rank" : 2, "formula" : "!App.client.core.modes.debug.get()", "stop" : true, "settings" : "SystemCommonSettings_Hidden" } ], "system" : true } }, { "mode" : "tab", "settings" : { "_id" : "RSBTabControl_NotificationsTab", "title" : "Notifications", "contentID" : "RSBTabControl_NotificationsPanel", "system" : true, "icon" : "info_outline", "hidden" : true, "disabled" : false }, "itemId" : "RSB_Notifications", "system" : true, "conditions" : { "_id" : "RSBTabControl-NotificationsVisibility", "rules" : [ { "title" : "NotificationList", "rank" : "1", "formula" : "core.admin.getNotificationList()", "stop" : true, "settings" : "SystemCommonSettings_Unhidden" }, { "title" : "NotificationListInvisible", "rank" : "2", "formula" : "!core.admin.getNotificationList()", "stop" : true, "settings" : "SystemCommonSettings_Hidden" } ], "system" : true } } ] }, "position" : "top", "system" : true }, "rules" : [] } } }
{ "_id" : "slider-widget-template", "collection" : "widgets", "doc" : { "_id" : "slider-template", "type" : "slider", "name" : "Slider Widget Template", "style" : { "widthMU" : 8 }, "softDeleted" : false, "template" : true, "demo" : false, "settings" : { "current" : { "type" : "slider", "text" : "<h5>Slider Widget</h5>", "config" : { "width" : "100%", "height" : "400px", "autoplay_interval" : 3000, "space_between" : 0 }, "items" : [ { "src" : "http://lorempixel.com/800/400/food/1", "link" : { "url" : "#1", "target" : "_blank" } }, { "src" : "http://lorempixel.com/800/400/food/2", "link" : { "url" : "#2", "target" : "_blank" } }, { "src" : "http://lorempixel.com/800/400/food/3", "link" : { "url" : "#3", "target" : "_blank" } }, { "src" : "http://lorempixel.com/800/400/food/4", "link" : { "url" : "#4", "target" : "_blank" } } ] }, "rules" : [] } } }
{ "_id" : "tabcontrol-widget-template", "collection" : "widgets", "doc" : { "_id" : "tabcontrol_template", "name" : "TabControl Template Widget", "type" : "tabcontrol", "style" : { "wrapper" : {}, "widthMU" : 8 }, "template" : true, "softDeleted" : false, "demo" : false, "settings" : { "current" : { "content" : { "default" : 0, "items" : [] }, "position" : "top" }, "rules" : [] } } }
{ "_id" : "user-avatar-menu-item", "collection" : "widgets", "doc" : { "_id" : "user-avatar", "style" : "circle-avatar", "parent" : "main-menu", "position" : "right", "rank" : 3, "type" : "menu-item", "system" : true, "settings" : { "current" : { "type" : "account", "val" : "", "title" : "", "image" : "[user:image()]", "display" : "icon", "parent" : "right-menu", "rank" : 3, "iconClass" : "menu-item-icon-big" }, "rules" : [] } } }
{ "_id" : "widget-editor-conditions-edit-form-widget", "collection" : "widgets", "doc" : { "_id" : "widget-conditions-form", "rank" : 0, "type" : "forms", "style" : { "widthMU" : 6 }, "softDeleted" : false, "demo" : false, "settings" : { "current" : { "type" : "forms", "content" : { "items" : [ { "settings" : { "label" : "Title", "icon" : "mode_edit", "value" : "", "placeholder" : "Title", "hidden" : false }, "type" : "forms-text", "style" : { "widthMU" : 6 }, "itemId" : "title" }, { "settings" : { "label" : "Rank", "icon" : "format_list_numbered", "value" : "", "placeholder" : "Rank", "hidden" : false }, "type" : "forms-text", "style" : { "widthMU" : 6 }, "itemId" : "rank" }, { "settings" : { "label" : "Formula", "icon" : "functions", "value" : "", "placeholder" : "Formula", "hidden" : false }, "type" : "forms-text", "style" : { "widthMU" : 6 }, "itemId" : "formula" }, { "settings" : { "offLabel" : "NO", "onLabel" : "YES", "label" : "Stop", "hidden" : false }, "type" : "forms-switch", "style" : { "widthMU" : 3 }, "itemId" : "stop" }, { "settings" : { "label" : "Index", "hidden" : false }, "type" : "forms-text-hidden", "style" : { "widthMU" : 3 }, "readonly" : true, "itemId" : "index" }, { "settings" : { "label" : "Type", "value" : "conditions", "hidden" : false }, "type" : "forms-text-hidden", "style" : { "widthMU" : 3 }, "readonly" : true, "itemId" : "type" }, { "settings" : { "label" : "JSON", "value" : "", "tinymce" : false, "hidden" : false }, "type" : "forms-jsoneditor", "style" : { "widthMU" : 12 }, "itemId" : "json" }, { "type" : "forms-submit", "settings" : { "value" : "Save condition", "hidden" : true }, "style" : { "widthMU" : 12 }, "itemId" : "submitConditionalPanelSettings" } ] }, "events" : { "submit" : "App.client.core.editor.update", "afterSubmit" : "App.client.core.editor.updateAfter" } }, "rules" : [] } } }
{ "_id" : "widget-editor-default-conditions-edit-form-widget", "collection" : "widgets", "doc" : { "_id" : "widget-default-conditions-form", "rank" : 0, "type" : "forms", "style" : { "widthMU" : 6 }, "template" : true, "softDeleted" : false, "demo" : false, "settings" : { "current" : { "type" : "forms", "content" : { "items" : [ { "settings" : { "label" : "JSON", "value" : "", "tinymce" : false, "hidden" : false }, "type" : "forms-jsoneditor", "style" : { "widthMU" : 12 }, "itemId" : "json" }, { "settings" : { "label" : "Type", "value" : "conditions", "hidden" : false }, "type" : "forms-text-hidden", "style" : { "widthMU" : 3 }, "readonly" : true, "itemId" : "type" }, { "type" : "forms-submit", "settings" : { "events" : { "click" : "() => {}" }, "value" : "Save default settings", "hidden" : true }, "style" : { "widthMU" : 12 }, "itemId" : "submitDefaultPanelSettings" } ] }, "events" : { "submit" : "App.client.core.editor.updateDefault", "afterSubmit" : "App.client.core.editor.updateAfter" } }, "rules" : [] } } }
{ "_id" : "widget-editor-default-permissions-edit-form-widget", "collection" : "widgets", "doc" : { "_id" : "widget-default-permissions-form", "rank" : 0, "type" : "forms", "style" : { "widthMU" : 6 }, "template" : true, "softDeleted" : false, "demo" : false, "settings" : { "current" : { "type" : "forms", "content" : { "items" : [ { "settings" : { "label" : "JSON", "value" : "", "tinymce" : false, "hidden" : false }, "type" : "forms-jsoneditor", "style" : { "widthMU" : 12 }, "itemId" : "json" }, { "settings" : { "label" : "Type", "value" : "permissions", "hidden" : false }, "type" : "forms-text-hidden", "style" : { "widthMU" : 3 }, "readonly" : true, "itemId" : "type" }, { "type" : "forms-submit", "settings" : { "events" : { "click" : "() => {\n\t error.out(\"default-settings onClick Submit\", \"Clicked successfully\")\n}" }, "value" : "Save default settings", "hidden" : true }, "style" : { "widthMU" : 12 }, "itemId" : "submitDefaultPanelSettings" } ] }, "events" : { "submit" : "App.client.core.editor.updateDefault", "afterSubmit" : "App.client.core.editor.updateAfter" } }, "rules" : [] } } }
{ "_id" : "widget-editor-permissions-edit-form-widget", "collection" : "widgets", "doc" : { "_id" : "widget-permissions-form", "rank" : 0, "type" : "forms", "style" : { "widthMU" : 6 }, "softDeleted" : false, "demo" : false, "settings" : { "current" : { "type" : "forms", "content" : { "items" : [ { "settings" : { "label" : "Title", "icon" : "edit_mode", "value" : "", "placeholder" : "Title", "hidden" : false }, "type" : "forms-text", "style" : { "widthMU" : 6 }, "itemId" : "title" }, { "settings" : { "label" : "Rank", "icon" : "format_list_numbered", "value" : "", "placeholder" : "Rank", "hidden" : false }, "type" : "forms-text", "style" : { "widthMU" : 6 }, "itemId" : "rank" }, { "settings" : { "label" : "Formula", "icon" : "functions", "value" : "", "placeholder" : "Formula", "hidden" : false }, "type" : "forms-text", "style" : { "widthMU" : 6 }, "itemId" : "formula" }, { "settings" : { "offLabel" : "NO", "onLabel" : "YES", "label" : "Stop", "hidden" : false }, "type" : "forms-switch", "style" : { "widthMU" : 3 }, "itemId" : "stop" }, { "settings" : { "label" : "Index", "hidden" : false }, "type" : "forms-text-hidden", "style" : { "widthMU" : 3 }, "readonly" : true, "itemId" : "index" }, { "settings" : { "label" : "Type", "value" : "permissions", "hidden" : false }, "type" : "forms-text-hidden", "style" : { "widthMU" : 3 }, "readonly" : true, "itemId" : "type" }, { "settings" : { "label" : "JSON", "value" : "", "tinymce" : false, "hidden" : false }, "type" : "forms-jsoneditor", "style" : { "widthMU" : 12 }, "itemId" : "json" }, { "type" : "forms-submit", "settings" : { "value" : "Save condition", "hidden" : true }, "style" : { "widthMU" : 12 }, "itemId" : "submitConditionalPanelSettings" } ] }, "events" : { "submit" : "App.client.core.editor.update", "afterSubmit" : "App.client.core.editor.updateAfter" } }, "rules" : [] } } }
{ "_id" : "ze-edit-s-widget", "collection" : "widgets", "doc" : { "_id" : "zeredit-s-edit", "type" : "forms", "style" : { "widthMU" : 4 }, "template" : true, "softDeleted" : false, "demo" : false, "settings" : { "current" : { "type" : "forms", "content" : { "items" : [ { "type" : "forms-text", "settings" : { "label" : "name", "hidden" : false }, "itemId" : "name" }, { "type" : "forms-text", "settings" : { "label" : "Label", "hidden" : false }, "itemId" : "label" }, { "type" : "forms-text", "settings" : { "label" : "Label", "hidden" : false }, "itemId" : "value" }, { "type" : "forms-text", "settings" : { "label" : "Placeholder", "hidden" : false }, "itemId" : "placeholder" }, { "type" : "forms-text", "settings" : { "label" : "Icon (Material Icon Font)", "hidden" : false }, "itemId" : "icon" } ] }, "events" : { "submit" : "" } }, "rules" : [] } } }
{ "_id" : "zeredit-add-new-input-widget", "collection" : "widgets", "doc" : { "_id" : "zeredit-add-new-input", "type" : "forms", "style" : { "widthMU" : 3 }, "template" : true, "softDeleted" : false, "demo" : false, "settings" : { "current" : { "type" : "forms", "content" : { "fields" : [ { "type" : "forms-select", "name" : "inputlist", "settings" : { "visible" : true, "content" : [ { "settings" : { "label" : "Forms-Text", "value" : "forms-text", "visible" : true }, "preselected" : true } ] } } ] }, "events" : {} }, "rules" : [] } } }
{ "_id" : "zeredit-s-edit-button-events-widget", "collection" : "widgets", "doc" : { "_id" : "zeredit-s-edit-button-events", "type" : "forms", "style" : { "widthMU" : 4 }, "template" : true, "softDeleted" : false, "demo" : false, "settings" : { "current" : { "type" : "forms", "content" : { "fields" : [ { "type" : "forms-textarea", "name" : "click", "settings" : { "label" : "onClick event", "visible" : true } } ] }, "events" : {} }, "rules" : [] } } }
{ "_id" : "zeredit-s-edit-button-widget", "collection" : "widgets", "doc" : { "_id" : "zeredit-s-edit-button", "type" : "forms", "style" : { "widthMU" : 4 }, "template" : true, "softDeleted" : false, "demo" : false, "settings" : { "current" : { "type" : "forms", "content" : { "fields" : [ { "type" : "forms-text", "name" : "value", "settings" : { "label" : "Value", "visible" : true } } ] }, "events" : {} }, "rules" : [] } } }
{ "_id" : "zeredit-s-edit-checkbox-widget", "collection" : "widgets", "doc" : { "_id" : "zeredit-s-edit-checkbox", "type" : "forms", "style" : { "widthMU" : 4 }, "template" : true, "softDeleted" : false, "demo" : false, "settings" : { "current" : { "type" : "forms", "content" : { "fields" : [ { "type" : "forms-text", "name" : "label", "settings" : { "label" : "Label", "visible" : true } }, { "type" : "forms-checkbox", "name" : "value", "settings" : { "label" : "Checked by default", "visible" : true } } ] }, "events" : {} }, "rules" : [] } } }
{ "_id" : "zeredit-s-edit-color-widget", "collection" : "widgets", "doc" : { "_id" : "zeredit-s-edit-color", "type" : "forms", "style" : { "widthMU" : 4 }, "template" : true, "softDeleted" : false, "demo" : false, "settings" : { "current" : { "type" : "forms", "content" : { "fields" : [ { "type" : "forms-text", "name" : "label", "settings" : { "label" : "Label", "visible" : true } }, { "type" : "forms-text", "name" : "value", "settings" : { "label" : "Value", "visible" : true } }, { "type" : "forms-text", "name" : "icon", "settings" : { "label" : "Icon (Material Icon Font)", "visible" : true } } ] }, "submitCallback" : "", "events" : { "submit" : [] } }, "rules" : [] } } }
{ "_id" : "zeredit-s-edit-date-widget", "collection" : "widgets", "doc" : { "_id" : "zeredit-s-edit-date", "type" : "forms", "style" : { "widthMU" : 4 }, "template" : true, "softDeleted" : false, "demo" : false, "settings" : { "current" : { "type" : "forms", "content" : { "fields" : [ { "type" : "forms-text", "name" : "label", "settings" : { "label" : "Label", "visible" : true } }, { "type" : "forms-text", "name" : "icon", "settings" : { "label" : "Icon (Material Icon Font)", "visible" : true } } ] }, "events" : {} }, "rules" : [] } } }
{ "_id" : "zeredit-s-edit-events-longlist-widget", "collection" : "widgets", "doc" : { "_id" : "zeredit-s-edit-events-longlist", "type" : "forms", "style" : { "widthMU" : 4 }, "template" : true, "softDeleted" : false, "demo" : false, "settings" : { "current" : { "type" : "forms", "content" : { "fields" : [ { "type" : "forms-textarea", "name" : "click", "settings" : { "label" : "Single click event", "visible" : true } }, { "type" : "forms-textarea", "name" : "dbclick", "settings" : { "label" : "Double click event", "visible" : true } }, { "type" : "forms-textarea", "name" : "contextmenu", "settings" : { "label" : "Right-click (context menu) event", "visible" : true } }, { "type" : "forms-textarea", "name" : "mousedown", "settings" : { "label" : "MouseDown event", "visible" : true } }, { "type" : "forms-textarea", "name" : "mouseup", "settings" : { "label" : "MouseUp event", "visible" : true } }, { "type" : "forms-textarea", "name" : "mouseover", "settings" : { "label" : "MouseOver event", "visible" : true } }, { "type" : "forms-textarea", "name" : "mouseout", "settings" : { "label" : "MouseOut event", "visible" : true } }, { "type" : "forms-textarea", "name" : "mousemove", "settings" : { "label" : "MouseMove event", "visible" : true } }, { "type" : "forms-textarea", "name" : "change", "settings" : { "label" : "Change event", "visible" : true } } ] }, "events" : {} }, "rules" : [] } } }
{ "_id" : "zeredit-s-edit-minmax-widget", "collection" : "widgets", "doc" : { "_id" : "zeredit-s-edit-minmax", "type" : "forms", "style" : { "widthMU" : 4 }, "template" : true, "softDeleted" : false, "demo" : false, "settings" : { "current" : { "type" : "forms", "content" : { "items" : [ { "type" : "forms-number", "settings" : { "label" : "Minimum", "hidden" : false }, "itemId" : "min" }, { "type" : "forms-number", "settings" : { "label" : "Maximum", "hidden" : false }, "itemId" : "max" } ] }, "events" : {} }, "rules" : [] } } }
{ "_id" : "zeredit-s-edit-number-widget", "collection" : "widgets", "doc" : { "_id" : "zeredit-s-edit-number", "type" : "forms", "style" : { "widthMU" : 4 }, "template" : true, "softDeleted" : false, "demo" : false, "settings" : { "current" : { "type" : "forms", "content" : { "fields" : [ { "type" : "forms-text", "name" : "label", "settings" : { "label" : "Label", "visible" : true } }, { "type" : "forms-text", "name" : "value", "settings" : { "label" : "Value", "visible" : true } }, { "type" : "forms-text", "name" : "placeholder", "settings" : { "label" : "Placeholder", "visible" : true } }, { "type" : "forms-text", "name" : "icon", "settings" : { "label" : "Icon (Material Icon Font)", "visible" : true } }, { "type" : "forms-number", "name" : "min", "settings" : { "label" : "Minimum", "visible" : true } }, { "type" : "forms-number", "name" : "max", "settings" : { "label" : "Maximum", "visible" : true } } ] }, "events" : {} }, "rules" : [] } } }
{ "_id" : "zeredit-s-edit-radio-button-widget", "collection" : "widgets", "doc" : { "_id" : "zeredit-s-edit-radio-button", "type" : "forms", "style" : { "widthMU" : 4 }, "template" : true, "softDeleted" : false, "demo" : false, "settings" : { "current" : { "type" : "forms", "content" : { "fields" : [ { "type" : "forms-text", "name" : "label", "settings" : { "label" : "Label", "visible" : true } }, { "type" : "forms-text", "name" : "value", "settings" : { "label" : "Value", "visible" : true } } ] }, "events" : {} }, "rules" : [] } } }
{ "_id" : "zeredit-s-edit-radio-group-widget", "collection" : "widgets", "doc" : { "_id" : "zeredit-s-edit-radio-group", "type" : "forms", "style" : { "widthMU" : 4 }, "template" : true, "softDeleted" : false, "demo" : false, "settings" : { "current" : { "type" : "forms", "content" : { "fields" : [ { "type" : "forms-text", "settings" : { "label" : "Radio group name", "visible" : true }, "itemId" : "group" } ] }, "group" : "default-group-name", "events" : {} }, "rules" : [] } } }
{ "_id" : "zeredit-s-edit-select-option-widget", "collection" : "widgets", "doc" : { "_id" : "zeredit-s-edit-select-option", "type" : "forms", "style" : { "widthMU" : 4 }, "template" : true, "softDeleted" : false, "demo" : false, "settings" : { "current" : { "type" : "forms", "content" : { "fields" : [ { "type" : "forms-text", "name" : "label", "settings" : { "label" : "Label", "visible" : true } }, { "type" : "forms-text", "name" : "value", "settings" : { "label" : "Value", "visible" : true } } ] }, "events" : {} }, "rules" : [] } } }
{ "_id" : "zeredit-s-edit-select-widget", "collection" : "widgets", "doc" : { "_id" : "zeredit-s-edit-select", "type" : "forms", "style" : { "widthMU" : 4 }, "template" : true, "softDeleted" : false, "demo" : false, "settings" : { "current" : { "type" : "forms", "content" : { "fields" : [ { "type" : "forms-text", "name" : "label", "settings" : { "label" : "Label", "visible" : true } } ] }, "events" : {} }, "rules" : [] } } }
{ "_id" : "zeredit-s-edit-switch-widget", "collection" : "widgets", "doc" : { "_id" : "zeredit-s-edit-switch", "type" : "forms", "style" : { "widthMU" : 4 }, "template" : true, "softDeleted" : false, "demo" : false, "settings" : { "current" : { "type" : "forms", "content" : { "fields" : [ { "type" : "forms-text", "name" : "label", "settings" : { "label" : "Label", "visible" : true } }, { "type" : "forms-text", "name" : "offLabel", "settings" : { "label" : "OFF Label", "visible" : true } }, { "type" : "forms-text", "name" : "onLabel", "settings" : { "label" : "ON Label", "visible" : true } }, { "type" : "forms-checkbox", "name" : "value", "settings" : { "label" : "Switched on by default", "visible" : true } } ] }, "events" : {} }, "rules" : [] } } }
{ "_id" : "zeredit-s-edit-text-widget", "collection" : "widgets", "doc" : { "_id" : "zeredit-s-edit-text", "type" : "forms", "style" : { "widthMU" : 4 }, "template" : true, "softDeleted" : false, "demo" : false, "settings" : { "current" : { "type" : "forms", "content" : { "fields" : [ { "type" : "forms-text", "name" : "label", "settings" : { "label" : "Label", "visible" : true } }, { "type" : "forms-text", "name" : "value", "settings" : { "label" : "Value", "visible" : true } }, { "type" : "forms-text", "name" : "placeholder", "settings" : { "label" : "Placeholder", "visible" : true } }, { "type" : "forms-text", "name" : "icon", "settings" : { "label" : "Icon (Material Icon Font)", "visible" : true } } ] }, "events" : {} }, "rules" : [] } } }
{ "_id" : "zeredit-s-edit-textarea-widget", "collection" : "widgets", "doc" : { "_id" : "zeredit-s-edit-textarea", "type" : "forms", "style" : { "widthMU" : 4 }, "template" : true, "softDeleted" : false, "demo" : false, "settings" : { "current" : { "type" : "forms", "content" : { "fields" : [ { "type" : "forms-text", "name" : "label", "settings" : { "label" : "Label", "visible" : true } }, { "type" : "forms-textarea", "name" : "value", "settings" : { "label" : "Content", "visible" : true } } ] }, "events" : {} }, "rules" : [] } } }
{ "_id" : "zeredit-s-json-widget", "collection" : "widgets", "doc" : { "_id" : "zeredit-s-json", "rank" : 0, "type" : "forms", "style" : { "widthMU" : 12 }, "template" : true, "softDeleted" : false, "demo" : false, "settings" : { "current" : { "type" : "forms", "content" : { "fields" : [ { "name" : "settings_json", "settings" : { "visible" : true, "label" : "JSON", "value" : "", "tinymce" : false }, "type" : "forms-jsoneditor", "style" : { "widthMU" : 12 } }, { "type" : "forms-submit", "name" : "submitInputJSON", "settings" : { "value" : "Save field", "visible" : false }, "style" : { "widthMU" : 6 } } ] }, "events" : { "submit" : "App.client.widgets.forms.editor.saveJSON" } }, "rules" : [] } } }
