{ "_id" : "widgets", "LastTransactionsList" : { "title" : "Last Transactions" }, "DashboardMessages" : { "title" : "Messages and Offers" }, "CardsInfo" : { "title" : "My Cards" }, "LoansInfo" : { "title" : "My Loans" }, "AccountStatement" : { "title" : "Statement for ${CurrentStatement:AccountNumber}" }, "AccountsInfo" : { "title" : "My Current Accounts" }, "LoanPayment" : { "title" : "Payment schedule for ${CurrentLoan:ContractNumber}" }, "LoansRepayment" : { "title" : "Repayment for ${CurrentLoan:ContractNumber}" } }
{ "_id" : "routes", "dashboard" : { "title" : "Dashboard" }, "loans" : { "title" : "Loans" }, "loans_payment" : { "title" : "Payment" }, "loans_repayment" : { "title" : "Repayment" }, "accounts" : { "title" : "Accounts" }, "accounts_deposits" : { "title" : "Deposits" }, "accounts_current" : { "title" : "Current Accounts" }, "accounts_statement" : { "title" : "Statement" }, "cards" : { "title" : "Cards" } }
{ "_id" : "dashboard_widgets", "widgets" : [ "LastTransactionsList", "DashboardMessages", "Pagination" ] }
