{ "_id" : "59c54096b252352ea1142d20", "name" : "LastTransactionsList", "owner" : "[root]", "settings" : { "transactionCount" : 5 }, "style" : { "width" : "8" }, "parent" : "dashboard" }
{ "_id" : "dashboard_messages", "name" : "DashboardMessages", "owner" : "[root]", "settings" : { "transactionCount" : 5 }, "style" : { "width" : "4" }, "parent" : "dashboard" }
{ "_id" : "all_accounts_list", "name" : "AllAccountsList", "owner" : "[root]", "settings" : { "components" : [ { "name" : "AccountTable", "type" : "DataTable", "options" : { "columns" : [ { "title" : "Account Number", "type" : "data", "value" : "AccountNumber" }, { "title" : "IBAN", "type" : "data", "value" : "IBAN" }, { "title" : "CurrencyId", "type" : "data", "value" : "CurrencyId" }, { "title" : "Acc Product", "type" : "data", "value" : "AccProduct" }, { "title" : "Open Actual Bal", "type" : "data", "value" : "OpenActualBal" } ], "query" : { "collection" : "ProductList", "method" : "findOne", "body" : {}, "props" : "Accounts", "dataview" : "dataview.allaccounts" } } }, { "name" : "AccountTablePagination", "type" : "Pagination", "options" : { "dataSource" : "dataview.allaccounts", "dataPerPage" : "5" } }, { "name" : "StatementTable", "type" : "DataTable", "options" : { "columns" : [ { "title" : "Date", "type" : "data", "value" : "ProcessingDate" }, { "title" : "Description", "type" : "data", "value" : "Description" }, { "title" : "Amount", "type" : "data", "value" : "AccountCcyAmount" }, { "title" : "CrfType", "type" : "data", "value" : "CrfType" } ], "query" : { "collection" : "ProductList", "method" : "findOne", "body" : {}, "props" : "Accounts", "process" : "Statement", "dataview" : "dataview.statement" } } }, { "name" : "LastTransaction", "type" : "DataTable", "options" : { "columns" : [ { "title" : "Account Number", "type" : "data", "value" : "AccountNumber" }, { "title" : "Processing Date", "type" : "data", "value" : "ProcessingDate" }, { "title" : "Description", "type" : "data", "value" : "Description" }, { "title" : "Amount", "type" : "data", "value" : "AccountCcyAmount" }, { "title" : "CurrencyId", "type" : "data", "value" : "CurrencyId" }, { "title" : "CrfType", "type" : "data", "value" : "CrfType" } ], "query" : { "collection" : "ProductList", "method" : "findOne", "body" : {}, "props" : "Accounts", "process" : "LastTransaction", "dataview" : "dataview.LastTransaction" } } }, { "name" : "AccountTableCA", "type" : "DataTable", "options" : { "columns" : [ { "title" : "Account Number", "type" : "data", "value" : "AccountNumber" }, { "title" : "IBAN", "type" : "data", "value" : "IBAN" }, { "title" : "CurrencyId", "type" : "data", "value" : "CurrencyId" }, { "title" : "Acc Product", "type" : "data", "value" : "AccProduct" }, { "title" : "Open Actual Bal", "type" : "data", "value" : "OpenActualBal" } ], "query" : { "collection" : "ProductList", "method" : "findOne", "body" : {}, "props" : "Accounts", "dataview" : "dataview.allaccountsca", "process" : "AccountFilterCA" } } } ] }, "style" : { "width" : "8" }, "parent" : "accounts_deposits" }
{ "_id" : "test1" }
{ "_id" : "test2", "parent" : "accounts" }
{ "_id" : "account_info", "name" : "AccountsInfo", "owner" : "[root]", "settings" : { "components" : [ { "name" : "AccountTable", "type" : "DataTable", "options" : { "columns" : [ { "title" : "Account", "type" : "data", "value" : "AccountNumber" }, { "title" : "Currency", "type" : "data", "value" : "CurrencyId" }, { "title" : "Balance", "type" : "data", "value" : "OpenActualBal" }, { "title" : "AccountsInfoBtn", "type" : "action", "value" : "Menu" } ], "query" : { "collection" : "ProductList", "method" : "findOne", "body" : {}, "props" : "Accounts", "dataview" : "dataview.accountsinfo" } } }, { "name" : "AccountTablePagination", "type" : "Pagination", "options" : { "dataSource" : "dataview.accountsinfo", "dataPerPage" : "5" } }, { "name" : "AccountsInfoBtn", "type" : "MenuBtn", "options" : { "items" : [ { "title" : "Statement" }, { "title" : "Transaction" } ] } } ] }, "style" : { "width" : "8" }, "parent" : "accounts_current" }
