{"_id":"widgets","LastTransactionsList":{"title":"Last Transactions"},"DashboardMessages":{"title":"Messages and Offers"},"CardsInfo":{"title":"My Cards"},"LoansInfo":{"title":"My Loans"},"AccountStatement":{"title":"Statement for ${CurrentStatement:AccountNumber}"},"AccountsInfo":{"title":"My Current Accounts"},"LoanPayment":{"title":"Payment schedule for ${CurrentLoan:ContractNumber}"},"LoansRepayment":{"title":"Repayment for ${CurrentLoan:ContractNumber}"},"Deposits":{"title":"My Deposits"},"ExchangeRate":{"title":"Exchange Rate"},"MoneyTransfer":{"title":"Money Transfer"},"MiniMoneyTransfer":{"title":"Money Transfer"},"DepositStatement":{"title":"Statement"}}
{"_id":"routes","dashboard":{"title":"Dashboard","nested":false},"loans":{"title":"Loans","nested":false},"loans_payment":{"title":"Payment","nested":true},"loans_repayment":{"title":"Repayment","nested":true},"accounts":{"title":"Accounts","nested":false},"accounts_deposits":{"title":"Deposits","nested":false},"accounts_current":{"title":"Current Accounts","nested":false},"accounts_statement":{"title":"Statement","nested":true},"accounts_deposits_transfer":{"title":"Transfer","nested":true},"deposits_statement":{"title":"Statement","nested":true},"cards":{"title":"Cards","nested":false},"cards_transfer":{"title":"Transfer","nested":true}}
{"_id":"dashboard_widgets","widgets":["LastTransactionsList","DashboardMessages","ExchangeRate"]}
