{"_id":"59c54096b252352ea1142d20","name":"LastTransactionsList","owner":"[root]","settings":{"components":[{"name":"LastTransaction","type":"DataTable","options":{"columns":[{"title":"Account Number","type":"data","value":"AccountNumber"},{"title":"Processing Date","type":"data","value":"ProcessingDate"},{"title":"Description","type":"data","value":"Description"},{"title":"Amount","type":"data","value":"AccountCcyAmount"},{"title":"CurrencyId","type":"data","value":"CurrencyId"},{"title":"CrfType","type":"data","value":"CrfType"}],"query":{"collection":"ProductList","method":"findOne","body":{},"props":"Accounts","process":"LastTransaction","dataview":"dataview.LastTransaction"}}}]},"style":{"width":"8"},"parent":"dashboard"}
{"_id":"dashboard_messages","name":"DashboardMessages","owner":"[root]","settings":{"transactionCount":5},"style":{"width":"4"},"parent":"dashboard"}
{"_id":"all_accounts_list","name":"AllAccountsList","owner":"[root]","settings":{"components":[{"name":"AccountTable","type":"DataTable","options":{"columns":[{"title":"Account Number","type":"data","value":"AccountNumber","adaptation":"3"},{"title":"IBAN","type":"data","value":"IBAN","adaptation":"3"},{"title":"CurrencyId","type":"data","value":"CurrencyId","adaptation":"2"},{"title":"Acc Product","type":"data","value":"AccProduct","adaptation":"3"},{"title":"Open Actual Bal","type":"data","value":"OpenActualBal","adaptation":"1"}],"query":{"collection":"ProductList","method":"findOne","body":{},"props":"Accounts","dataview":"dataview.allaccounts"}}},{"name":"AccountTablePagination","type":"Pagination","options":{"dataSource":"dataview.allaccounts","dataPerPage":"5","size":"sm"}},{"name":"StatementTable","type":"DataTable","options":{"columns":[{"title":"Date","type":"data","value":"ProcessingDate","adaptation":"3"},{"title":"Description","type":"data","value":"Description","adaptation":"3"},{"title":"Amount","type":"data","value":"AccountCcyAmount","adaptation":"3"},{"title":"CrfType","type":"data","value":"CrfType","adaptation":"3"}],"query":{"collection":"ProductList","method":"findOne","body":{},"props":"Accounts","process":"Statement","dataview":"dataview.statement"}}},{"name":"LastTransaction","type":"DataTable","options":{"columns":[{"title":"Account Number","type":"data","value":"AccountNumber","adaptation":"2"},{"title":"Processing Date","type":"data","value":"ProcessingDate","adaptation":"2"},{"title":"Description","type":"data","value":"Description","adaptation":"2"},{"title":"Amount","type":"data","value":"AccountCcyAmount","adaptation":"2"},{"title":"CurrencyId","type":"data","value":"CurrencyId","adaptation":"2"},{"title":"CrfType","type":"data","value":"CrfType","adaptation":"2"}],"query":{"collection":"ProductList","method":"findOne","body":{},"props":"Accounts","process":"LastTransaction","dataview":"dataview.LastTransaction"}}},{"name":"AccountTableCA","type":"DataTable","options":{"columns":[{"title":"Account Number","type":"data","value":"AccountNumber","adaptation":"3"},{"title":"IBAN","type":"data","value":"IBAN","adaptation":"3"},{"title":"CurrencyId","type":"data","value":"CurrencyId","adaptation":"2"},{"title":"Acc Product","type":"data","value":"AccProduct","adaptation":"3"},{"title":"Open Actual Bal","type":"data","value":"OpenActualBal","adaptation":"1"}],"query":{"collection":"ProductList","method":"findOne","body":{},"props":"Accounts","dataview":"dataview.allaccountsca","process":"AccountFilterCA"}}}]},"style":{"width":"8"},"parent":"accounts_deposits"}
{"_id":"account_info","name":"AccountsInfo","owner":"[root]","settings":{"components":[{"name":"AccountTable","type":"DataTable","options":{"columns":[{"title":"Account","type":"data","value":"AccountNumber","adaptation":"4"},{"title":"Currency","type":"data","value":"CurrencyId","adaptation":"2"},{"title":"Balance","type":"data","value":"OpenActualBal","adaptation":"3"},{"title":"AccountsInfoBtn","type":"MenuBtn","value":[{"title":"Statement","href":"statement"},{"title":"Transaction","href":"#"}],"adaptation":"3"}],"query":{"collection":"ProductList","method":"findOne","body":{},"props":"Accounts","dataview":"dataview.accountsinfo"}}},{"name":"AccountTablePagination","type":"Pagination","options":{"dataSource":"dataview.accountsinfo","dataPerPage":"5","size":"lg"}},{"name":"AccountsInfoTable","type":"InfoTable","options":{"query":{"collection":"ProductList","method":"findOne","body":{},"props":"Accounts"}}}]},"style":{"width":"12"},"parent":"accounts_current"}
{"_id":"account_statement","name":"AccountStatement","owner":"[root]","settings":{"components":[{"name":"CurrentStatementTable","type":"DataTable","options":{"columns":[{"title":"Date","type":"data","value":"ProcessingDate","adaptation":"3"},{"title":"Description","type":"data","value":"Description","adaptation":"3"},{"title":"Amount","type":"data","value":"AccountCcyAmount","adaptation":"3"},{"title":"Type","type":"data","value":"CrfType","adaptation":"3"}],"query":{"collection":"ProductList","method":"findOne","body":{},"props":"Accounts","process":"CurrentStatement","dataview":"dataview.CurrentStatement"}}},{"name":"StatementTablePagination","type":"Pagination","options":{"dataSource":"dataview.CurrentStatement","dataPerPage":"5","size":"lg"}}]},"style":{"width":"8"},"parent":"accounts_statement"}
{"_id":"card_info","name":"CardsInfo","owner":"[root]","settings":{"components":[{"name":"CardInfo","type":"DataTable","options":{"columns":[{"title":"Card Number","type":"data","value":"CardNo","adaptation":"3"},{"title":"Name on card","type":"data","value":"NameOnCard","adaptation":"3"},{"title":"Available Amount","type":"data","value":"Currency","adaptation":"2"},{"title":"Status","type":"CheckBox","value":"true","adaptation":"1"},{"title":"","type":"MenuBtn","value":[{"title":"transaction","href":"transaction"}],"adaptation":"2"}],"query":{"collection":"ProductList","method":"findOne","body":{},"props":"Cards","dataview":"dataview.CardInfo"}}}]},"style":{"width":"12"},"parent":"cards"}
{"_id":"loan","name":"LoansInfo","owner":"[root]","settings":{"components":[{"name":"LoansInfoTable","type":"DataTable","options":{"columns":[{"title":"Loan Code","type":"data","value":"ContractNumber","adaptation":"3"},{"title":"Disburse Amount","type":"data","value":"ApprovedAmount","adaptation":"3"},{"title":"Next Paymant Date","type":"data","value":"nextPayment","adaptation":"3"},{"title":"Payment Amount","type":"data","value":"InstallAmount","adaptation":"3"},{"title":"","type":"MenuBtn","value":[{"title":"Paymant Schedule","href":"Payment"}],"adaptation":"3"}],"query":{"collection":"ProductList","method":"findOne","body":{},"props":"Loans","process":"Loans","dataview":"dataview.Loans"}}},{"name":"LoansTablePagination","type":"Pagination","options":{"dataSource":"dataview.Loans","dataPerPage":"5","size":"lg"}}]},"style":{"width":"10"},"parent":"loans"}
