{ "_id" : "59c54096b252352ea1142d20", "name" : "LastTransactionsList", "owner" : "[root]", "settings" : { "components" : [ { "name" : "LastTransaction", "type" : "DataTable", "options" : { "columns" : [ { "title" : "Account Number", "type" : "data", "value" : "AccountNumber" }, { "title" : "Processing Date", "type" : "data", "value" : "ProcessingDate" }, { "title" : "Description", "type" : "data", "value" : "Description" }, { "title" : "Amount", "type" : "data", "value" : "AccountCcyAmount" }, { "title" : "CurrencyId", "type" : "data", "value" : "CurrencyId" }, { "title" : "CrfType", "type" : "data", "value" : "CrfType" } ], "query" : { "collection" : "ProductList", "method" : "findOne", "body" : {}, "props" : "Accounts", "process" : "LastTransaction", "dataview" : "dataview.LastTransaction" } } } ] }, "style" : { "width" : "8" }, "parent" : "dashboard" }
{ "_id" : "dashboard_messages", "name" : "DashboardMessages", "owner" : "[root]", "settings" : { "transactionCount" : 5 }, "style" : { "width" : "4" }, "parent" : "dashboard" }
{ "_id" : "all_accounts_list", "name" : "AllAccountsList", "owner" : "[root]", "settings" : { "components" : [ { "name" : "AccountTable", "type" : "DataTable", "options" : { "columns" : [ { "title" : "Account Number", "type" : "data", "value" : "AccountNumber", "adaptation" : "3" }, { "title" : "IBAN", "type" : "data", "value" : "IBAN", "adaptation" : "3" }, { "title" : "CurrencyId", "type" : "data", "value" : "CurrencyId", "adaptation" : "2" }, { "title" : "Acc Product", "type" : "data", "value" : "AccProduct", "adaptation" : "3" }, { "title" : "Open Actual Bal", "type" : "data", "value" : "OpenActualBal", "adaptation" : "1" } ], "query" : { "collection" : "ProductList", "method" : "findOne", "body" : {}, "props" : "Accounts", "dataview" : "dataview.allaccounts" } } }, { "name" : "AccountTablePagination", "type" : "Pagination", "options" : { "dataSource" : "dataview.allaccounts", "dataPerPage" : "5", "size" : "sm" } }, { "name" : "StatementTable", "type" : "DataTable", "options" : { "columns" : [ { "title" : "Date", "type" : "data", "value" : "ProcessingDate", "adaptation" : "3" }, { "title" : "Description", "type" : "data", "value" : "Description", "adaptation" : "3" }, { "title" : "Amount", "type" : "data", "value" : "AccountCcyAmount", "adaptation" : "3" }, { "title" : "CrfType", "type" : "data", "value" : "CrfType", "adaptation" : "3" } ], "query" : { "collection" : "ProductList", "method" : "findOne", "body" : {}, "props" : "Accounts", "process" : "Statement", "dataview" : "dataview.statement" } } }, { "name" : "LastTransaction", "type" : "DataTable", "options" : { "columns" : [ { "title" : "Account Number", "type" : "data", "value" : "AccountNumber", "adaptation" : "2" }, { "title" : "Processing Date", "type" : "data", "value" : "ProcessingDate", "adaptation" : "2" }, { "title" : "Description", "type" : "data", "value" : "Description", "adaptation" : "2" }, { "title" : "Amount", "type" : "data", "value" : "AccountCcyAmount", "adaptation" : "2" }, { "title" : "CurrencyId", "type" : "data", "value" : "CurrencyId", "adaptation" : "2" }, { "title" : "CrfType", "type" : "data", "value" : "CrfType", "adaptation" : "2" } ], "query" : { "collection" : "ProductList", "method" : "findOne", "body" : {}, "props" : "Accounts", "process" : "LastTransaction", "dataview" : "dataview.LastTransaction" } } }, { "name" : "AccountTableCA", "type" : "DataTable", "options" : { "columns" : [ { "title" : "Account Number", "type" : "data", "value" : "AccountNumber", "adaptation" : "3" }, { "title" : "IBAN", "type" : "data", "value" : "IBAN", "adaptation" : "3" }, { "title" : "CurrencyId", "type" : "data", "value" : "CurrencyId", "adaptation" : "2" }, { "title" : "Acc Product", "type" : "data", "value" : "AccProduct", "adaptation" : "3" }, { "title" : "Open Actual Bal", "type" : "data", "value" : "OpenActualBal", "adaptation" : "1" } ], "query" : { "collection" : "ProductList", "method" : "findOne", "body" : {}, "props" : "Accounts", "dataview" : "dataview.allaccountsca", "process" : "AccountFilterCA" } } } ] }, "style" : { "width" : "8" }, "parent" : "accounts_deposits" }
{ "_id" : "account_info", "name" : "AccountsInfo", "owner" : "[root]", "settings" : { "components" : [ { "name" : "AccountTable", "type" : "DataTable", "options" : { "events" : { "click" : "updateStatement", "current" : "CurrentStatement" }, "dataProcess" : "GetAccountInfo", "columns" : [ { "title" : "Account", "type" : "data", "value" : "AccountNumber", "adaptation" : "4" }, { "title" : "Currency", "type" : "data", "value" : "CurrencyId", "adaptation" : "2" }, { "title" : "Balance", "type" : "data", "value" : "OpenActualBal", "adaptation" : "3" } ], "query" : { "collection" : "ProductList", "method" : "findOne", "body" : {}, "props" : "Accounts", "dataview" : "dataview.accountsinfo" }, "IsId" : "1" } }, { "name" : "AccountTablePagination", "type" : "Pagination", "options" : { "dataSource" : "dataview.accountsinfo", "dataPerPage" : "5", "size" : "lg" } }, { "name" : "AccountsInfoTable", "type" : "InfoTable", "options" : { "items" : [ { "title" : "Statement", "href" : "statement" }, { "title" : "Transaction", "href" : "#" } ], "data" : [ { "title" : "Account Balance", "value" : "${CurrentStatement:OpenActualBal}" }, { "title" : "Last Transaction", "value" : "${CurrentStatement:LastTranDate}" } ], "generalInformation" : "GetTotalBalance", "query" : { "collection" : "ProductList", "method" : "findOne", "body" : {}, "props" : "Accounts" }, "AppStateName" : "money", "caption" : "Account" } } ] }, "style" : { "width" : "12" }, "parent" : "accounts_current" }
{ "_id" : "account_statement", "name" : "AccountStatement", "owner" : "[root]", "settings" : { "components" : [ { "name" : "CurrentStatementTable", "type" : "DataTable", "options" : { "columns" : [ { "title" : "Date", "type" : "data", "value" : "ProcessingDate", "adaptation" : "3" }, { "title" : "Description", "type" : "data", "value" : "Description", "adaptation" : "3" }, { "title" : "Amount", "type" : "data", "value" : "AccountCcyAmount", "adaptation" : "3" }, { "title" : "Type", "type" : "data", "value" : "CrfType", "adaptation" : "3" } ], "query" : { "collection" : "ProductList", "method" : "findOne", "body" : {}, "props" : "Accounts", "process" : "CurrentStatement", "dataview" : "dataview.CurrentStatement" } } }, { "name" : "StatementTablePagination", "type" : "Pagination", "options" : { "dataSource" : "dataview.CurrentStatement", "dataPerPage" : "5", "size" : "lg" } } ] }, "style" : { "width" : "8" }, "parent" : "accounts_statement" }
{ "_id" : "card_info", "name" : "CardsInfo", "owner" : "[root]", "settings" : { "components" : [ { "name" : "CardInfo", "type" : "DataTable", "options" : { "columns" : [ { "title" : "Type", "type" : "data", "value" : "Type", "adaptation" : "3" }, { "title" : "Card Number", "type" : "data", "value" : "CardNo", "adaptation" : "3" }, { "title" : "Name on card", "type" : "data", "value" : "NameOnCard", "adaptation" : "3" }, { "title" : "Available", "type" : "data", "value" : "Currency", "adaptation" : "2" }, { "title" : "Status", "type" : "CheckBox", "value" : "true", "adaptation" : "1" } ], "events" : { "click" : "updateCard", "current" : "CurrentCard" }, "dataProcess" : "GetCardInfo", "query" : { "collection" : "ProductList", "method" : "findOne", "body" : { "_id" : "E976A3EFD95B31F804C6F18DDBBD1F6F-NEW" }, "props" : "Cards", "dataview" : "dataview.CardInfo", "process" : "Cards" }, "IsId" : "2" } }, { "name" : "CardsTablePagination", "type" : "Pagination", "options" : { "dataSource" : "dataview.CardInfo", "dataPerPage" : "5", "size" : "lg" } }, { "name" : "CardsInfoTable", "type" : "InfoTable", "options" : { "items" : [ { "title" : "Statement", "href" : "statement" }, { "title" : "Money Transfer", "href" : "moneytransfer" }, { "title" : "Services", "href" : "services" } ], "data" : [ { "title" : "Total Balance", "value" : "${CurrentCard:TotalBalance}" }, { "title" : "Blocked Amount", "value" : "${CurrentCard:BlockedAmount}" }, { "title" : "Available Amount", "value" : "${CurrentCard:AvailableAmount}" } ], "generalInformation" : "", "query" : { "collection" : "ProductList", "method" : "findOne", "body" : {}, "props" : "Cards" }, "AppStateName" : "a", "caption" : "Card Balance" } } ] }, "style" : { "width" : "12" }, "parent" : "cards" }
{ "_id" : "loan", "name" : "LoansInfo", "owner" : "[root]", "settings" : { "components" : [ { "name" : "LoansTable", "type" : "DataTable", "options" : { "events" : { "click" : "updateLoan", "current" : "CurrentLoan" }, "columns" : [ { "title" : "Loan Code", "type" : "data", "value" : "ContractNumber", "adaptation" : "3" }, { "title" : "Disburse amt.", "type" : "data", "value" : "ApprovedAmount", "adaptation" : "3" }, { "title" : "Next Paymant Date", "type" : "data", "value" : "nextPayment", "adaptation" : "3" }, { "title" : "Payment amt.", "type" : "data", "value" : "paymentAmount", "adaptation" : "3" } ], "query" : { "collection" : "ProductList", "method" : "findOne", "body" : {}, "props" : "Loans", "process" : "Loans", "dataview" : "dataview.Loans" }, "dataProcess" : "GetLoanInfo", "IsId" : "1" } }, { "name" : "LoansTablePagination", "type" : "Pagination", "options" : { "dataSource" : "dataview.Loans", "dataPerPage" : "5", "size" : "lg" } }, { "name" : "LoansInfoTable", "type" : "InfoTable", "options" : { "data" : [ { "title" : "Total Debt", "value" : "${CurrentLoan:TotalDebt}" }, { "title" : "Interest amt.", "value" : "${CurrentLoan:InterestAmount}" }, { "title" : "Payment amt.", "value" : "${CurrentLoan:PaymentAmount}" }, { "title" : "Penalty amt.", "value" : "${CurrentLoan:PenaltyAmount}" }, { "title" : "Principal amt.", "value" : "${CurrentLoan:PrincipalAmount}" } ], "items" : [ { "title" : "Paymant Schedule", "href" : "loans/payment" }, { "title" : "Loans Repaymant", "href" : "loans/repayment" } ], "AppStateName" : "overallloans", "generalInformation" : "GetTotalLoans", "query" : { "collection" : "ProductList", "method" : "findOne", "body" : {}, "props" : "Loans" } } } ] }, "style" : { "width" : "12" }, "parent" : "loans" }
{ "_id" : "loans_payment", "name" : "LoanPayment", "owner" : "[root]", "settings" : { "components" : [ { "name" : "CurrentLoanTable", "type" : "DataTable", "options" : { "columns" : [ { "title" : "Planed Payment Date", "type" : "data", "value" : "PlanRepayDate" }, { "title" : "Fact Payment Date", "type" : "data", "value" : "FactRepayDate" }, { "title" : "Principal Amount", "type" : "data", "value" : "PrinPlan" }, { "title" : "Interest Amount", "type" : "data", "value" : "IntPlan" }, { "title" : "Penalty", "type" : "data", "value" : "PenPlan" }, { "title" : "Total Paid", "type" : "data", "value" : "TotalUnpaid" } ], "query" : { "collection" : "ProductList", "method" : "findOne", "body" : {}, "props" : "Loans", "process" : "CurrentLoan", "dataview" : "dataview.CurrentLoan" } } }, { "name" : "LoanPaymentTablePagination", "type" : "Pagination", "options" : { "dataSource" : "dataview.CurrentLoan", "dataPerPage" : "5", "size" : "lg" } } ] }, "style" : { "width" : "12" }, "parent" : "loans_payment" }
{ "_id" : "exchange", "name" : "ExchangeRate", "owner" : "[root]", "settings" : { "components" : [ { "name" : "Exchange", "type" : "Exchange", "options" : { "inputs" : [ { "name" : "Number", "type" : "FormsInputBasic", "events" : {}, "options" : { "class" : "currencyValue", "title" : "Number", "type" : "number", "icon" : "pencil", "help_block" : "This is sample of number field", "iconMode" : false, "titleMode" : false, "help_blockMode" : false } }, { "name" : "Select", "type" : "FormsInputSelect", "events" : {}, "options" : { "class" : "currency", "title" : "Select", "optionsList" : [ "AZN", "USD", "EUR", "GBP" ], "help_block" : "Select box example", "titleMode" : false, "help_blockMode" : false } }, { "name" : "Number", "type" : "FormsInputBasic", "events" : {}, "options" : { "class" : "exchangeResult", "title" : "Number", "type" : "number", "icon" : "pencil", "result" : 0, "help_block" : "This is sample of number field", "iconMode" : false, "titleMode" : true, "help_blockMode" : false, "readonlyMode" : true } } ] } } ] }, "style" : { "width" : "3" }, "parent" : "accounts_deposits" }
{ "_id" : "loan_repayment", "name" : "LoansRepayment", "owner" : "[root]", "settings" : { "components" : [ { "name" : "LoanRepartments", "type" : "LoanRepartment", "options" : { "inputs" : [ { "name" : "Payment Source", "type" : "FormsInputSelect", "events" : {}, "options" : { "class" : "payment_source", "title" : "Paymnet Source", "optionsList" : [ "Account", "Payment Card" ], "help_block" : "Select box example", "titleMode" : true, "help_blockMode" : false } }, { "name" : "Loan Code", "type" : "FormsInputBasic", "events" : {}, "options" : { "class" : "loan_code", "title" : "Loan Code", "type" : "text", "icon" : "pencil", "help_block" : "This is sample of number field", "iconMode" : false, "titleMode" : true, "help_blockMode" : false, "readonlyMode" : true } }, { "name" : "Repayment", "type" : "FormsInputSelect", "events" : {}, "options" : { "class" : "repayment", "title" : "Repayment", "optionsList" : [ "Full Repayment", "Parcial Repayment" ], "help_block" : "Select box example", "titleMode" : true, "help_blockMode" : false } }, { "name" : "RepaymentValue", "type" : "FormsInputBasic", "events" : {}, "options" : { "class" : "repayment_value", "title" : "RepaymentValue", "type" : "number", "icon" : "pencil", "result" : 0, "help_block" : "This is sample of number field", "addition" : true, "iconMode" : false, "titleMode" : true, "help_blockMode" : false, "readonlyMode" : false } }, { "name" : "RepaymentDescription", "type" : "FormsInputBasic", "events" : {}, "options" : { "class" : "repayment_description", "title" : "Descriptions", "type" : "text", "icon" : "pencil", "help_block" : "This is sample of number field", "iconMode" : false, "titleMode" : true, "help_blockMode" : false, "readonlyMode" : false } } ] } } ] }, "parent" : "loans_repayment", "width" : "8" }
{ "_id" : "deposits", "name" : "Deposits", "owner" : "[root]", "settings" : { "components" : [ { "name" : "DepositsTable", "type" : "DataTable", "options" : { "columns" : [ { "title" : "Contract No.", "type" : "data", "value" : "ContrID", "adaptation" : "3" }, { "title" : "Currency", "type" : "data", "value" : "Currency", "adaptation" : "3" }, { "title" : "Type of Product", "type" : "data", "value" : "ProdDescr", "adaptation" : "3" }, { "title" : "Balance", "type" : "data", "value" : "Balance", "adaptation" : "2" } ], "events" : { "click" : "updateDeposit", "current" : "CurrentDeposit" }, "dataProcess" : "GetDepositInfo", "query" : { "collection" : "ProductList", "method" : "findOne", "body" : { "_id" : "E976A3EFD95B31F804C6F18DDBBD1F6F-NEW" }, "props" : "Deposits", "dataview" : "dataview.Deposits" }, "IsId" : "1" } }, { "name" : "DepositsTablePagination", "type" : "Pagination", "options" : { "dataSource" : "dataview.Deposits", "dataPerPage" : "5", "size" : "lg" } }, { "name" : "DepositsInfoTable", "type" : "InfoTable", "options" : { "items" : [ { "title" : "Statement", "href" : "depositstatement" }, { "title" : "Money Transfer", "href" : "DepositMoneyTransfer" } ], "data" : [ { "title" : "Balance", "value" : "${CurrentDeposit:Balance}" }, { "title" : "Next Payment Date", "value" : "${CurrentDeposit:PlannedDate}" }, { "title" : "Planed Amount", "value" : "${CurrentDeposit:PlannedAmount}" } ], "generalInformation" : "", "query" : { "collection" : "ProductList", "method" : "findOne", "body" : { "_id" : "E976A3EFD95B31F804C6F18DDBBD1F6F-NEW" }, "props" : "Deposits" }, "AppStateName" : "a", "caption" : "Deposit Information" } } ] }, "parent" : "accounts_deposits", "width" : "12" }
{ "_id" : "deposits_statement", "name" : "DepositStatement", "owner" : "[root]", "settings" : { "components" : [ { "name" : "CurrentDepositTable", "type" : "DataTable", "options" : { "columns" : [ { "title" : "#", "type" : "data", "value" : "InstallmentNumber", "adaptation" : "3" }, { "title" : "Date", "type" : "data", "value" : "PlannedDate", "adaptation" : "3" }, { "title" : "Planned Amt.", "type" : "data", "value" : "PlannedAmount", "adaptation" : "3" }, { "title" : "Paid  Amt.", "type" : "data", "value" : "PaidAmount", "adaptation" : "3" }, { "title" : "Interest", "type" : "data", "value" : "CalculatedInterest", "adaptation" : "3" }, { "title" : "Balance", "type" : "data", "value" : "TotalSavings", "adaptation" : "3" } ], "query" : { "collection" : "ProductList", "method" : "findOne", "body" : {}, "props" : "Deposits", "process" : "CurrentDeposit", "dataview" : "dataview.CurrentDeposit" } } }, { "name" : "DepositStatementTablePagination", "type" : "Pagination", "options" : { "dataSource" : "dataview.CurrentDeposit", "dataPerPage" : "5", "size" : "lg" } } ] }, "style" : { "width" : "9" }, "parent" : "deposits_statement" }
